('/Users/thao/PycharmProjects/PeopleDetection/build/Webcam-human-tracking/Webcam-human-tracking',
 True,
 False,
 True,
 None,
 None,
 False,
 False,
 None,
 True,
 'Webcam-human-tracking.pkg',
 [('PYZ-00.pyz',
   '/Users/thao/PycharmProjects/PeopleDetection/build/Webcam-human-tracking/PYZ-00.pyz',
   'PYZ'),
  ('_struct',
   '/usr/local/Cellar/python/3.6.5_1/Frameworks/Python.framework/Versions/3.6/lib/python3.6/lib-dynload/_struct.cpython-36m-darwin.so',
   'EXTENSION'),
  ('zlib',
   '/usr/local/Cellar/python/3.6.5_1/Frameworks/Python.framework/Versions/3.6/lib/python3.6/lib-dynload/zlib.cpython-36m-darwin.so',
   'EXTENSION'),
  ('struct',
   '/usr/local/Cellar/python/3.6.5_1/Frameworks/Python.framework/Versions/3.6/lib/python3.6/struct.pyo',
   'PYMODULE'),
  ('pyimod01_os_path',
   '/usr/local/lib/python3.6/site-packages/PyInstaller/loader/pyimod01_os_path.pyc',
   'PYMODULE'),
  ('pyimod02_archive',
   '/usr/local/lib/python3.6/site-packages/PyInstaller/loader/pyimod02_archive.pyc',
   'PYMODULE'),
  ('pyimod03_importers',
   '/usr/local/lib/python3.6/site-packages/PyInstaller/loader/pyimod03_importers.pyc',
   'PYMODULE'),
  ('pyiboot01_bootstrap',
   '/usr/local/lib/python3.6/site-packages/PyInstaller/loader/pyiboot01_bootstrap.py',
   'PYSOURCE'),
  ('pyi_rth_multiprocessing',
   '/usr/local/lib/python3.6/site-packages/PyInstaller/loader/rthooks/pyi_rth_multiprocessing.py',
   'PYSOURCE'),
  ('pyi_rth_pkgres',
   '/usr/local/lib/python3.6/site-packages/PyInstaller/loader/rthooks/pyi_rth_pkgres.py',
   'PYSOURCE'),
  ('pyi_rth__tkinter',
   '/usr/local/lib/python3.6/site-packages/PyInstaller/loader/rthooks/pyi_rth__tkinter.py',
   'PYSOURCE'),
  ('Webcam-human-tracking',
   '/Users/thao/PycharmProjects/PeopleDetection/Webcam-human-tracking.py',
   'PYSOURCE')],
 [],
 False,
 False,
 1544755671,
 [('run',
   '/usr/local/lib/python3.6/site-packages/PyInstaller/bootloader/Darwin-64bit/run',
   'EXECUTABLE')])
