([('WebcamTracking',
   '/Users/thao/PycharmProjects/PeopleDetection/build/WebcamTracking/WebcamTracking',
   'EXECUTABLE'),
  ('_struct.cpython-36m-darwin.so',
   '/Users/thao/PycharmProjects/PeopleDetection/mypython/lib/python3.6/lib-dynload/_struct.cpython-36m-darwin.so',
   'EXTENSION'),
  ('zlib.cpython-36m-darwin.so',
   '/Users/thao/PycharmProjects/PeopleDetection/mypython/lib/python3.6/lib-dynload/zlib.cpython-36m-darwin.so',
   'EXTENSION'),
  ('.Python',
   '/Users/thao/PycharmProjects/PeopleDetection/mypython/bin/../.Python',
   'BINARY'),
  ('_ctypes',
   '/Users/thao/PycharmProjects/PeopleDetection/mypython/lib/python3.6/lib-dynload/_ctypes.cpython-36m-darwin.so',
   'EXTENSION'),
  ('array',
   '/Users/thao/PycharmProjects/PeopleDetection/mypython/lib/python3.6/lib-dynload/array.cpython-36m-darwin.so',
   'EXTENSION'),
  ('_multiprocessing',
   '/Users/thao/PycharmProjects/PeopleDetection/mypython/lib/python3.6/lib-dynload/_multiprocessing.cpython-36m-darwin.so',
   'EXTENSION'),
  ('_decimal',
   '/Users/thao/PycharmProjects/PeopleDetection/mypython/lib/python3.6/lib-dynload/_decimal.cpython-36m-darwin.so',
   'EXTENSION'),
  ('mmap',
   '/Users/thao/PycharmProjects/PeopleDetection/mypython/lib/python3.6/lib-dynload/mmap.cpython-36m-darwin.so',
   'EXTENSION'),
  ('resource',
   '/Users/thao/PycharmProjects/PeopleDetection/mypython/lib/python3.6/lib-dynload/resource.cpython-36m-darwin.so',
   'EXTENSION'),
  ('_posixsubprocess',
   '/Users/thao/PycharmProjects/PeopleDetection/mypython/lib/python3.6/lib-dynload/_posixsubprocess.cpython-36m-darwin.so',
   'EXTENSION'),
  ('_pickle',
   '/Users/thao/PycharmProjects/PeopleDetection/mypython/lib/python3.6/lib-dynload/_pickle.cpython-36m-darwin.so',
   'EXTENSION'),
  ('_datetime',
   '/Users/thao/PycharmProjects/PeopleDetection/mypython/lib/python3.6/lib-dynload/_datetime.cpython-36m-darwin.so',
   'EXTENSION'),
  ('_ssl',
   '/Users/thao/PycharmProjects/PeopleDetection/mypython/lib/python3.6/lib-dynload/_ssl.cpython-36m-darwin.so',
   'EXTENSION'),
  ('unicodedata',
   '/Users/thao/PycharmProjects/PeopleDetection/mypython/lib/python3.6/lib-dynload/unicodedata.cpython-36m-darwin.so',
   'EXTENSION'),
  ('_codecs_kr',
   '/Users/thao/PycharmProjects/PeopleDetection/mypython/lib/python3.6/lib-dynload/_codecs_kr.cpython-36m-darwin.so',
   'EXTENSION'),
  ('_codecs_tw',
   '/Users/thao/PycharmProjects/PeopleDetection/mypython/lib/python3.6/lib-dynload/_codecs_tw.cpython-36m-darwin.so',
   'EXTENSION'),
  ('_codecs_hk',
   '/Users/thao/PycharmProjects/PeopleDetection/mypython/lib/python3.6/lib-dynload/_codecs_hk.cpython-36m-darwin.so',
   'EXTENSION'),
  ('_codecs_jp',
   '/Users/thao/PycharmProjects/PeopleDetection/mypython/lib/python3.6/lib-dynload/_codecs_jp.cpython-36m-darwin.so',
   'EXTENSION'),
  ('_codecs_iso2022',
   '/Users/thao/PycharmProjects/PeopleDetection/mypython/lib/python3.6/lib-dynload/_codecs_iso2022.cpython-36m-darwin.so',
   'EXTENSION'),
  ('_codecs_cn',
   '/Users/thao/PycharmProjects/PeopleDetection/mypython/lib/python3.6/lib-dynload/_codecs_cn.cpython-36m-darwin.so',
   'EXTENSION'),
  ('_multibytecodec',
   '/Users/thao/PycharmProjects/PeopleDetection/mypython/lib/python3.6/lib-dynload/_multibytecodec.cpython-36m-darwin.so',
   'EXTENSION'),
  ('_heapq',
   '/Users/thao/PycharmProjects/PeopleDetection/mypython/lib/python3.6/lib-dynload/_heapq.cpython-36m-darwin.so',
   'EXTENSION'),
  ('_struct',
   '/Users/thao/PycharmProjects/PeopleDetection/mypython/lib/python3.6/lib-dynload/_struct.cpython-36m-darwin.so',
   'EXTENSION'),
  ('_opcode',
   '/Users/thao/PycharmProjects/PeopleDetection/mypython/lib/python3.6/lib-dynload/_opcode.cpython-36m-darwin.so',
   'EXTENSION'),
  ('readline',
   '/Users/thao/PycharmProjects/PeopleDetection/mypython/lib/python3.6/readline.so',
   'EXTENSION'),
  ('pyexpat',
   '/Users/thao/PycharmProjects/PeopleDetection/mypython/lib/python3.6/lib-dynload/pyexpat.cpython-36m-darwin.so',
   'EXTENSION'),
  ('_scproxy',
   '/Users/thao/PycharmProjects/PeopleDetection/mypython/lib/python3.6/lib-dynload/_scproxy.cpython-36m-darwin.so',
   'EXTENSION'),
  ('termios',
   '/Users/thao/PycharmProjects/PeopleDetection/mypython/lib/python3.6/lib-dynload/termios.cpython-36m-darwin.so',
   'EXTENSION'),
  ('_sha1',
   '/Users/thao/PycharmProjects/PeopleDetection/mypython/lib/python3.6/lib-dynload/_sha1.cpython-36m-darwin.so',
   'EXTENSION'),
  ('_md5',
   '/Users/thao/PycharmProjects/PeopleDetection/mypython/lib/python3.6/lib-dynload/_md5.cpython-36m-darwin.so',
   'EXTENSION'),
  ('_sha256',
   '/Users/thao/PycharmProjects/PeopleDetection/mypython/lib/python3.6/lib-dynload/_sha256.cpython-36m-darwin.so',
   'EXTENSION'),
  ('_sha512',
   '/Users/thao/PycharmProjects/PeopleDetection/mypython/lib/python3.6/lib-dynload/_sha512.cpython-36m-darwin.so',
   'EXTENSION'),
  ('_blake2',
   '/Users/thao/PycharmProjects/PeopleDetection/mypython/lib/python3.6/lib-dynload/_blake2.cpython-36m-darwin.so',
   'EXTENSION'),
  ('_sha3',
   '/Users/thao/PycharmProjects/PeopleDetection/mypython/lib/python3.6/lib-dynload/_sha3.cpython-36m-darwin.so',
   'EXTENSION'),
  ('_hashlib',
   '/Users/thao/PycharmProjects/PeopleDetection/mypython/lib/python3.6/lib-dynload/_hashlib.cpython-36m-darwin.so',
   'EXTENSION'),
  ('_bisect',
   '/Users/thao/PycharmProjects/PeopleDetection/mypython/lib/python3.6/lib-dynload/_bisect.cpython-36m-darwin.so',
   'EXTENSION'),
  ('_random',
   '/Users/thao/PycharmProjects/PeopleDetection/mypython/lib/python3.6/lib-dynload/_random.cpython-36m-darwin.so',
   'EXTENSION'),
  ('zlib',
   '/Users/thao/PycharmProjects/PeopleDetection/mypython/lib/python3.6/lib-dynload/zlib.cpython-36m-darwin.so',
   'EXTENSION'),
  ('_bz2',
   '/Users/thao/PycharmProjects/PeopleDetection/mypython/lib/python3.6/lib-dynload/_bz2.cpython-36m-darwin.so',
   'EXTENSION'),
  ('_lzma',
   '/Users/thao/PycharmProjects/PeopleDetection/mypython/lib/python3.6/lib-dynload/_lzma.cpython-36m-darwin.so',
   'EXTENSION'),
  ('grp',
   '/Users/thao/PycharmProjects/PeopleDetection/mypython/lib/python3.6/lib-dynload/grp.cpython-36m-darwin.so',
   'EXTENSION'),
  ('binascii',
   '/Users/thao/PycharmProjects/PeopleDetection/mypython/lib/python3.6/lib-dynload/binascii.cpython-36m-darwin.so',
   'EXTENSION'),
  ('_socket',
   '/Users/thao/PycharmProjects/PeopleDetection/mypython/lib/python3.6/lib-dynload/_socket.cpython-36m-darwin.so',
   'EXTENSION'),
  ('select',
   '/Users/thao/PycharmProjects/PeopleDetection/mypython/lib/python3.6/lib-dynload/select.cpython-36m-darwin.so',
   'EXTENSION'),
  ('math',
   '/Users/thao/PycharmProjects/PeopleDetection/mypython/lib/python3.6/lib-dynload/math.cpython-36m-darwin.so',
   'EXTENSION'),
  ('cv2.cv2',
   '/Users/thao/PycharmProjects/PeopleDetection/mypython/lib/python3.6/site-packages/cv2/cv2.cpython-36m-darwin.so',
   'EXTENSION'),
  ('google.protobuf.pyext._message',
   '/Users/thao/PycharmProjects/PeopleDetection/mypython/lib/python3.6/site-packages/google/protobuf/pyext/_message.cpython-36m-darwin.so',
   'EXTENSION'),
  ('google.protobuf.internal._api_implementation',
   '/Users/thao/PycharmProjects/PeopleDetection/mypython/lib/python3.6/site-packages/google/protobuf/internal/_api_implementation.cpython-36m-darwin.so',
   'EXTENSION'),
  ('_json',
   '/Users/thao/PycharmProjects/PeopleDetection/mypython/lib/python3.6/lib-dynload/_json.cpython-36m-darwin.so',
   'EXTENSION'),
  ('h5py.h5ac',
   '/Users/thao/PycharmProjects/PeopleDetection/mypython/lib/python3.6/site-packages/h5py/h5ac.cpython-36m-darwin.so',
   'EXTENSION'),
  ('h5py.defs',
   '/Users/thao/PycharmProjects/PeopleDetection/mypython/lib/python3.6/site-packages/h5py/defs.cpython-36m-darwin.so',
   'EXTENSION'),
  ('h5py.utils',
   '/Users/thao/PycharmProjects/PeopleDetection/mypython/lib/python3.6/site-packages/h5py/utils.cpython-36m-darwin.so',
   'EXTENSION'),
  ('h5py._proxy',
   '/Users/thao/PycharmProjects/PeopleDetection/mypython/lib/python3.6/site-packages/h5py/_proxy.cpython-36m-darwin.so',
   'EXTENSION'),
  ('h5py._objects',
   '/Users/thao/PycharmProjects/PeopleDetection/mypython/lib/python3.6/site-packages/h5py/_objects.cpython-36m-darwin.so',
   'EXTENSION'),
  ('h5py.h5',
   '/Users/thao/PycharmProjects/PeopleDetection/mypython/lib/python3.6/site-packages/h5py/h5.cpython-36m-darwin.so',
   'EXTENSION'),
  ('h5py.h5l',
   '/Users/thao/PycharmProjects/PeopleDetection/mypython/lib/python3.6/site-packages/h5py/h5l.cpython-36m-darwin.so',
   'EXTENSION'),
  ('h5py.h5o',
   '/Users/thao/PycharmProjects/PeopleDetection/mypython/lib/python3.6/site-packages/h5py/h5o.cpython-36m-darwin.so',
   'EXTENSION'),
  ('h5py.h5i',
   '/Users/thao/PycharmProjects/PeopleDetection/mypython/lib/python3.6/site-packages/h5py/h5i.cpython-36m-darwin.so',
   'EXTENSION'),
  ('h5py.h5p',
   '/Users/thao/PycharmProjects/PeopleDetection/mypython/lib/python3.6/site-packages/h5py/h5p.cpython-36m-darwin.so',
   'EXTENSION'),
  ('h5py.h5t',
   '/Users/thao/PycharmProjects/PeopleDetection/mypython/lib/python3.6/site-packages/h5py/h5t.cpython-36m-darwin.so',
   'EXTENSION'),
  ('h5py.h5s',
   '/Users/thao/PycharmProjects/PeopleDetection/mypython/lib/python3.6/site-packages/h5py/h5s.cpython-36m-darwin.so',
   'EXTENSION'),
  ('h5py.h5r',
   '/Users/thao/PycharmProjects/PeopleDetection/mypython/lib/python3.6/site-packages/h5py/h5r.cpython-36m-darwin.so',
   'EXTENSION'),
  ('h5py.h5g',
   '/Users/thao/PycharmProjects/PeopleDetection/mypython/lib/python3.6/site-packages/h5py/h5g.cpython-36m-darwin.so',
   'EXTENSION'),
  ('h5py.h5fd',
   '/Users/thao/PycharmProjects/PeopleDetection/mypython/lib/python3.6/site-packages/h5py/h5fd.cpython-36m-darwin.so',
   'EXTENSION'),
  ('h5py.h5f',
   '/Users/thao/PycharmProjects/PeopleDetection/mypython/lib/python3.6/site-packages/h5py/h5f.cpython-36m-darwin.so',
   'EXTENSION'),
  ('h5py.h5ds',
   '/Users/thao/PycharmProjects/PeopleDetection/mypython/lib/python3.6/site-packages/h5py/h5ds.cpython-36m-darwin.so',
   'EXTENSION'),
  ('h5py.h5d',
   '/Users/thao/PycharmProjects/PeopleDetection/mypython/lib/python3.6/site-packages/h5py/h5d.cpython-36m-darwin.so',
   'EXTENSION'),
  ('h5py.h5a',
   '/Users/thao/PycharmProjects/PeopleDetection/mypython/lib/python3.6/site-packages/h5py/h5a.cpython-36m-darwin.so',
   'EXTENSION'),
  ('h5py.h5z',
   '/Users/thao/PycharmProjects/PeopleDetection/mypython/lib/python3.6/site-packages/h5py/h5z.cpython-36m-darwin.so',
   'EXTENSION'),
  ('h5py._conv',
   '/Users/thao/PycharmProjects/PeopleDetection/mypython/lib/python3.6/site-packages/h5py/_conv.cpython-36m-darwin.so',
   'EXTENSION'),
  ('h5py._errors',
   '/Users/thao/PycharmProjects/PeopleDetection/mypython/lib/python3.6/site-packages/h5py/_errors.cpython-36m-darwin.so',
   'EXTENSION'),
  ('_csv',
   '/Users/thao/PycharmProjects/PeopleDetection/mypython/lib/python3.6/lib-dynload/_csv.cpython-36m-darwin.so',
   'EXTENSION'),
  ('_pywrap_tensorflow_internal',
   '/Users/thao/PycharmProjects/PeopleDetection/mypython/lib/python3.6/site-packages/tensorflow/python/_pywrap_tensorflow_internal.so',
   'EXTENSION'),
  ('tensorflow.python.framework.fast_tensor_util',
   '/Users/thao/PycharmProjects/PeopleDetection/mypython/lib/python3.6/site-packages/tensorflow/python/framework/fast_tensor_util.so',
   'EXTENSION'),
  ('fcntl',
   '/Users/thao/PycharmProjects/PeopleDetection/mypython/lib/python3.6/lib-dynload/fcntl.cpython-36m-darwin.so',
   'EXTENSION'),
  ('numpy.core._multiarray_tests',
   '/Users/thao/PycharmProjects/PeopleDetection/mypython/lib/python3.6/site-packages/numpy/core/_multiarray_tests.cpython-36m-darwin.so',
   'EXTENSION'),
  ('numpy.core.multiarray',
   '/Users/thao/PycharmProjects/PeopleDetection/mypython/lib/python3.6/site-packages/numpy/core/multiarray.cpython-36m-darwin.so',
   'EXTENSION'),
  ('numpy.core.umath',
   '/Users/thao/PycharmProjects/PeopleDetection/mypython/lib/python3.6/site-packages/numpy/core/umath.cpython-36m-darwin.so',
   'EXTENSION'),
  ('syslog',
   '/Users/thao/PycharmProjects/PeopleDetection/mypython/lib/python3.6/lib-dynload/syslog.cpython-36m-darwin.so',
   'EXTENSION'),
  ('_curses',
   '/Users/thao/PycharmProjects/PeopleDetection/mypython/lib/python3.6/lib-dynload/_curses.cpython-36m-darwin.so',
   'EXTENSION'),
  ('numpy.random.mtrand',
   '/Users/thao/PycharmProjects/PeopleDetection/mypython/lib/python3.6/site-packages/numpy/random/mtrand.cpython-36m-darwin.so',
   'EXTENSION'),
  ('numpy.fft.fftpack_lite',
   '/Users/thao/PycharmProjects/PeopleDetection/mypython/lib/python3.6/site-packages/numpy/fft/fftpack_lite.cpython-36m-darwin.so',
   'EXTENSION'),
  ('numpy.linalg._umath_linalg',
   '/Users/thao/PycharmProjects/PeopleDetection/mypython/lib/python3.6/site-packages/numpy/linalg/_umath_linalg.cpython-36m-darwin.so',
   'EXTENSION'),
  ('numpy.linalg.lapack_lite',
   '/Users/thao/PycharmProjects/PeopleDetection/mypython/lib/python3.6/site-packages/numpy/linalg/lapack_lite.cpython-36m-darwin.so',
   'EXTENSION'),
  ('libssl.1.0.0.dylib',
   '/usr/local/opt/openssl/lib/libssl.1.0.0.dylib',
   'BINARY'),
  ('libcrypto.1.0.0.dylib',
   '/usr/local/opt/openssl/lib/libcrypto.1.0.0.dylib',
   'BINARY'),
  ('libreadline.7.dylib',
   '/usr/local/opt/readline/lib/libreadline.7.dylib',
   'BINARY'),
  ('liblzma.5.dylib', '/usr/local/opt/xz/lib/liblzma.5.dylib', 'BINARY'),
  ('QtGui',
   '/Users/thao/PycharmProjects/PeopleDetection/mypython/lib/python3.6/site-packages/cv2/.dylibs/QtGui',
   'BINARY'),
  ('libavresample.4.0.0.dylib',
   '/Users/thao/PycharmProjects/PeopleDetection/mypython/lib/python3.6/site-packages/cv2/.dylibs/libavresample.4.0.0.dylib',
   'BINARY'),
  ('QtTest',
   '/Users/thao/PycharmProjects/PeopleDetection/mypython/lib/python3.6/site-packages/cv2/.dylibs/QtTest',
   'BINARY'),
  ('libavcodec.58.35.100.dylib',
   '/Users/thao/PycharmProjects/PeopleDetection/mypython/lib/python3.6/site-packages/cv2/.dylibs/libavcodec.58.35.100.dylib',
   'BINARY'),
  ('libavformat.58.20.100.dylib',
   '/Users/thao/PycharmProjects/PeopleDetection/mypython/lib/python3.6/site-packages/cv2/.dylibs/libavformat.58.20.100.dylib',
   'BINARY'),
  ('libavutil.56.22.100.dylib',
   '/Users/thao/PycharmProjects/PeopleDetection/mypython/lib/python3.6/site-packages/cv2/.dylibs/libavutil.56.22.100.dylib',
   'BINARY'),
  ('libswscale.5.3.100.dylib',
   '/Users/thao/PycharmProjects/PeopleDetection/mypython/lib/python3.6/site-packages/cv2/.dylibs/libswscale.5.3.100.dylib',
   'BINARY'),
  ('QtCore',
   '/Users/thao/PycharmProjects/PeopleDetection/mypython/lib/python3.6/site-packages/cv2/.dylibs/QtCore',
   'BINARY'),
  ('libhdf5.101.dylib',
   '/Users/thao/PycharmProjects/PeopleDetection/mypython/lib/python3.6/site-packages/h5py/.dylibs/libhdf5.101.dylib',
   'BINARY'),
  ('libhdf5_hl.100.dylib',
   '/Users/thao/PycharmProjects/PeopleDetection/mypython/lib/python3.6/site-packages/h5py/.dylibs/libhdf5_hl.100.dylib',
   'BINARY'),
  ('libtensorflow_framework.so',
   '/Users/thao/PycharmProjects/PeopleDetection/mypython/lib/python3.6/site-packages/tensorflow/libtensorflow_framework.so',
   'BINARY'),
  ('libopenblasp-r0.3.0.dev.dylib',
   '/Users/thao/PycharmProjects/PeopleDetection/mypython/lib/python3.6/site-packages/numpy/core/../.dylibs/libopenblasp-r0.3.0.dev.dylib',
   'BINARY'),
  ('libmp3lame.0.dylib',
   '/Users/thao/PycharmProjects/PeopleDetection/mypython/lib/python3.6/site-packages/cv2/.dylibs/libmp3lame.0.dylib',
   'BINARY'),
  ('libopus.0.dylib',
   '/Users/thao/PycharmProjects/PeopleDetection/mypython/lib/python3.6/site-packages/cv2/.dylibs/libopus.0.dylib',
   'BINARY'),
  ('libtheoraenc.1.dylib',
   '/Users/thao/PycharmProjects/PeopleDetection/mypython/lib/python3.6/site-packages/cv2/.dylibs/libtheoraenc.1.dylib',
   'BINARY'),
  ('libvorbisenc.2.dylib',
   '/Users/thao/PycharmProjects/PeopleDetection/mypython/lib/python3.6/site-packages/cv2/.dylibs/libvorbisenc.2.dylib',
   'BINARY'),
  ('libswresample.3.3.100.dylib',
   '/Users/thao/PycharmProjects/PeopleDetection/mypython/lib/python3.6/site-packages/cv2/.dylibs/libswresample.3.3.100.dylib',
   'BINARY'),
  ('libvorbis.0.dylib',
   '/Users/thao/PycharmProjects/PeopleDetection/mypython/lib/python3.6/site-packages/cv2/.dylibs/libvorbis.0.dylib',
   'BINARY'),
  ('libtheoradec.1.dylib',
   '/Users/thao/PycharmProjects/PeopleDetection/mypython/lib/python3.6/site-packages/cv2/.dylibs/libtheoradec.1.dylib',
   'BINARY'),
  ('libogg.0.dylib',
   '/Users/thao/PycharmProjects/PeopleDetection/mypython/lib/python3.6/site-packages/cv2/.dylibs/libogg.0.dylib',
   'BINARY'),
  ('libsnappy.1.1.7.dylib',
   '/Users/thao/PycharmProjects/PeopleDetection/mypython/lib/python3.6/site-packages/cv2/.dylibs/libsnappy.1.1.7.dylib',
   'BINARY'),
  ('libaec.0.dylib',
   '/Users/thao/PycharmProjects/PeopleDetection/mypython/lib/python3.6/site-packages/h5py/.dylibs/libaec.0.dylib',
   'BINARY'),
  ('libsz.2.dylib',
   '/Users/thao/PycharmProjects/PeopleDetection/mypython/lib/python3.6/site-packages/h5py/.dylibs/libsz.2.dylib',
   'BINARY'),
  ('libgfortran.3.dylib',
   '/Users/thao/PycharmProjects/PeopleDetection/mypython/lib/python3.6/site-packages/numpy/.dylibs/libgfortran.3.dylib',
   'BINARY'),
  ('libquadmath.0.dylib',
   '/Users/thao/PycharmProjects/PeopleDetection/mypython/lib/python3.6/site-packages/numpy/.dylibs/libquadmath.0.dylib',
   'BINARY'),
  ('libgcc_s.1.dylib',
   '/Users/thao/PycharmProjects/PeopleDetection/mypython/lib/python3.6/site-packages/numpy/.dylibs/libgcc_s.1.dylib',
   'BINARY'),
  ('base_library.zip',
   '/Users/thao/PycharmProjects/PeopleDetection/build/WebcamTracking/base_library.zip',
   'DATA'),
  ('lib2to3/Grammar3.6.5.final.0.pickle',
   '/usr/local/Cellar/python/3.6.5_1/Frameworks/Python.framework/Versions/3.6/lib/python3.6/lib2to3/Grammar3.6.5.final.0.pickle',
   'DATA'),
  ('lib2to3/Grammar.txt',
   '/usr/local/Cellar/python/3.6.5_1/Frameworks/Python.framework/Versions/3.6/lib/python3.6/lib2to3/Grammar.txt',
   'DATA'),
  ('lib2to3/PatternGrammar3.6.5.final.0.pickle',
   '/usr/local/Cellar/python/3.6.5_1/Frameworks/Python.framework/Versions/3.6/lib/python3.6/lib2to3/PatternGrammar3.6.5.final.0.pickle',
   'DATA'),
  ('lib2to3/tests/data/README',
   '/usr/local/Cellar/python/3.6.5_1/Frameworks/Python.framework/Versions/3.6/lib/python3.6/lib2to3/tests/data/README',
   'DATA'),
  ('include/python3.6m/pyconfig.h',
   '/Users/thao/PycharmProjects/PeopleDetection/mypython/include/python3.6m/pyconfig.h',
   'DATA'),
  ('lib/python3.6/config-3.6m-darwin/Makefile',
   '/Users/thao/PycharmProjects/PeopleDetection/mypython/lib/python3.6/config-3.6m-darwin/Makefile',
   'DATA'),
  ('lib2to3/PatternGrammar.txt',
   '/usr/local/Cellar/python/3.6.5_1/Frameworks/Python.framework/Versions/3.6/lib/python3.6/lib2to3/PatternGrammar.txt',
   'DATA')],)
