([('WebcamTracking',
   '/Users/thao/PycharmProjects/PeopleDetection/build/WebcamTracking/WebcamTracking',
   'EXECUTABLE'),
  ('Python',
   '/usr/local/Cellar/python/3.6.5_1/Frameworks/Python.framework/Versions/3.6/Python',
   'BINARY'),
  ('array',
   '/usr/local/Cellar/python/3.6.5_1/Frameworks/Python.framework/Versions/3.6/lib/python3.6/lib-dynload/array.cpython-36m-darwin.so',
   'EXTENSION'),
  ('_ctypes',
   '/usr/local/Cellar/python/3.6.5_1/Frameworks/Python.framework/Versions/3.6/lib/python3.6/lib-dynload/_ctypes.cpython-36m-darwin.so',
   'EXTENSION'),
  ('_multiprocessing',
   '/usr/local/Cellar/python/3.6.5_1/Frameworks/Python.framework/Versions/3.6/lib/python3.6/lib-dynload/_multiprocessing.cpython-36m-darwin.so',
   'EXTENSION'),
  ('_decimal',
   '/usr/local/Cellar/python/3.6.5_1/Frameworks/Python.framework/Versions/3.6/lib/python3.6/lib-dynload/_decimal.cpython-36m-darwin.so',
   'EXTENSION'),
  ('mmap',
   '/usr/local/Cellar/python/3.6.5_1/Frameworks/Python.framework/Versions/3.6/lib/python3.6/lib-dynload/mmap.cpython-36m-darwin.so',
   'EXTENSION'),
  ('resource',
   '/usr/local/Cellar/python/3.6.5_1/Frameworks/Python.framework/Versions/3.6/lib/python3.6/lib-dynload/resource.cpython-36m-darwin.so',
   'EXTENSION'),
  ('_posixsubprocess',
   '/usr/local/Cellar/python/3.6.5_1/Frameworks/Python.framework/Versions/3.6/lib/python3.6/lib-dynload/_posixsubprocess.cpython-36m-darwin.so',
   'EXTENSION'),
  ('_pickle',
   '/usr/local/Cellar/python/3.6.5_1/Frameworks/Python.framework/Versions/3.6/lib/python3.6/lib-dynload/_pickle.cpython-36m-darwin.so',
   'EXTENSION'),
  ('_datetime',
   '/usr/local/Cellar/python/3.6.5_1/Frameworks/Python.framework/Versions/3.6/lib/python3.6/lib-dynload/_datetime.cpython-36m-darwin.so',
   'EXTENSION'),
  ('_ssl',
   '/usr/local/Cellar/python/3.6.5_1/Frameworks/Python.framework/Versions/3.6/lib/python3.6/lib-dynload/_ssl.cpython-36m-darwin.so',
   'EXTENSION'),
  ('_heapq',
   '/usr/local/Cellar/python/3.6.5_1/Frameworks/Python.framework/Versions/3.6/lib/python3.6/lib-dynload/_heapq.cpython-36m-darwin.so',
   'EXTENSION'),
  ('_opcode',
   '/usr/local/Cellar/python/3.6.5_1/Frameworks/Python.framework/Versions/3.6/lib/python3.6/lib-dynload/_opcode.cpython-36m-darwin.so',
   'EXTENSION'),
  ('readline',
   '/usr/local/Cellar/python/3.6.5_1/Frameworks/Python.framework/Versions/3.6/lib/python3.6/lib-dynload/readline.cpython-36m-darwin.so',
   'EXTENSION'),
  ('pyexpat',
   '/usr/local/Cellar/python/3.6.5_1/Frameworks/Python.framework/Versions/3.6/lib/python3.6/lib-dynload/pyexpat.cpython-36m-darwin.so',
   'EXTENSION'),
  ('_scproxy',
   '/usr/local/Cellar/python/3.6.5_1/Frameworks/Python.framework/Versions/3.6/lib/python3.6/lib-dynload/_scproxy.cpython-36m-darwin.so',
   'EXTENSION'),
  ('termios',
   '/usr/local/Cellar/python/3.6.5_1/Frameworks/Python.framework/Versions/3.6/lib/python3.6/lib-dynload/termios.cpython-36m-darwin.so',
   'EXTENSION'),
  ('_sha1',
   '/usr/local/Cellar/python/3.6.5_1/Frameworks/Python.framework/Versions/3.6/lib/python3.6/lib-dynload/_sha1.cpython-36m-darwin.so',
   'EXTENSION'),
  ('_md5',
   '/usr/local/Cellar/python/3.6.5_1/Frameworks/Python.framework/Versions/3.6/lib/python3.6/lib-dynload/_md5.cpython-36m-darwin.so',
   'EXTENSION'),
  ('_sha256',
   '/usr/local/Cellar/python/3.6.5_1/Frameworks/Python.framework/Versions/3.6/lib/python3.6/lib-dynload/_sha256.cpython-36m-darwin.so',
   'EXTENSION'),
  ('_sha512',
   '/usr/local/Cellar/python/3.6.5_1/Frameworks/Python.framework/Versions/3.6/lib/python3.6/lib-dynload/_sha512.cpython-36m-darwin.so',
   'EXTENSION'),
  ('_blake2',
   '/usr/local/Cellar/python/3.6.5_1/Frameworks/Python.framework/Versions/3.6/lib/python3.6/lib-dynload/_blake2.cpython-36m-darwin.so',
   'EXTENSION'),
  ('_sha3',
   '/usr/local/Cellar/python/3.6.5_1/Frameworks/Python.framework/Versions/3.6/lib/python3.6/lib-dynload/_sha3.cpython-36m-darwin.so',
   'EXTENSION'),
  ('_hashlib',
   '/usr/local/Cellar/python/3.6.5_1/Frameworks/Python.framework/Versions/3.6/lib/python3.6/lib-dynload/_hashlib.cpython-36m-darwin.so',
   'EXTENSION'),
  ('_bisect',
   '/usr/local/Cellar/python/3.6.5_1/Frameworks/Python.framework/Versions/3.6/lib/python3.6/lib-dynload/_bisect.cpython-36m-darwin.so',
   'EXTENSION'),
  ('_random',
   '/usr/local/Cellar/python/3.6.5_1/Frameworks/Python.framework/Versions/3.6/lib/python3.6/lib-dynload/_random.cpython-36m-darwin.so',
   'EXTENSION'),
  ('_lzma',
   '/usr/local/Cellar/python/3.6.5_1/Frameworks/Python.framework/Versions/3.6/lib/python3.6/lib-dynload/_lzma.cpython-36m-darwin.so',
   'EXTENSION'),
  ('grp',
   '/usr/local/Cellar/python/3.6.5_1/Frameworks/Python.framework/Versions/3.6/lib/python3.6/lib-dynload/grp.cpython-36m-darwin.so',
   'EXTENSION'),
  ('_socket',
   '/usr/local/Cellar/python/3.6.5_1/Frameworks/Python.framework/Versions/3.6/lib/python3.6/lib-dynload/_socket.cpython-36m-darwin.so',
   'EXTENSION'),
  ('binascii',
   '/usr/local/Cellar/python/3.6.5_1/Frameworks/Python.framework/Versions/3.6/lib/python3.6/lib-dynload/binascii.cpython-36m-darwin.so',
   'EXTENSION'),
  ('_struct',
   '/usr/local/Cellar/python/3.6.5_1/Frameworks/Python.framework/Versions/3.6/lib/python3.6/lib-dynload/_struct.cpython-36m-darwin.so',
   'EXTENSION'),
  ('_codecs_kr',
   '/usr/local/Cellar/python/3.6.5_1/Frameworks/Python.framework/Versions/3.6/lib/python3.6/lib-dynload/_codecs_kr.cpython-36m-darwin.so',
   'EXTENSION'),
  ('_codecs_tw',
   '/usr/local/Cellar/python/3.6.5_1/Frameworks/Python.framework/Versions/3.6/lib/python3.6/lib-dynload/_codecs_tw.cpython-36m-darwin.so',
   'EXTENSION'),
  ('_codecs_hk',
   '/usr/local/Cellar/python/3.6.5_1/Frameworks/Python.framework/Versions/3.6/lib/python3.6/lib-dynload/_codecs_hk.cpython-36m-darwin.so',
   'EXTENSION'),
  ('unicodedata',
   '/usr/local/Cellar/python/3.6.5_1/Frameworks/Python.framework/Versions/3.6/lib/python3.6/lib-dynload/unicodedata.cpython-36m-darwin.so',
   'EXTENSION'),
  ('_bz2',
   '/usr/local/Cellar/python/3.6.5_1/Frameworks/Python.framework/Versions/3.6/lib/python3.6/lib-dynload/_bz2.cpython-36m-darwin.so',
   'EXTENSION'),
  ('zlib',
   '/usr/local/Cellar/python/3.6.5_1/Frameworks/Python.framework/Versions/3.6/lib/python3.6/lib-dynload/zlib.cpython-36m-darwin.so',
   'EXTENSION'),
  ('_codecs_iso2022',
   '/usr/local/Cellar/python/3.6.5_1/Frameworks/Python.framework/Versions/3.6/lib/python3.6/lib-dynload/_codecs_iso2022.cpython-36m-darwin.so',
   'EXTENSION'),
  ('_codecs_cn',
   '/usr/local/Cellar/python/3.6.5_1/Frameworks/Python.framework/Versions/3.6/lib/python3.6/lib-dynload/_codecs_cn.cpython-36m-darwin.so',
   'EXTENSION'),
  ('_codecs_jp',
   '/usr/local/Cellar/python/3.6.5_1/Frameworks/Python.framework/Versions/3.6/lib/python3.6/lib-dynload/_codecs_jp.cpython-36m-darwin.so',
   'EXTENSION'),
  ('_multibytecodec',
   '/usr/local/Cellar/python/3.6.5_1/Frameworks/Python.framework/Versions/3.6/lib/python3.6/lib-dynload/_multibytecodec.cpython-36m-darwin.so',
   'EXTENSION'),
  ('select',
   '/usr/local/Cellar/python/3.6.5_1/Frameworks/Python.framework/Versions/3.6/lib/python3.6/lib-dynload/select.cpython-36m-darwin.so',
   'EXTENSION'),
  ('math',
   '/usr/local/Cellar/python/3.6.5_1/Frameworks/Python.framework/Versions/3.6/lib/python3.6/lib-dynload/math.cpython-36m-darwin.so',
   'EXTENSION'),
  ('cv2.cv2',
   '/usr/local/lib/python3.6/site-packages/cv2/cv2.cpython-36m-darwin.so',
   'EXTENSION'),
  ('google.protobuf.pyext._message',
   '/usr/local/lib/python3.6/site-packages/google/protobuf/pyext/_message.cpython-36m-darwin.so',
   'EXTENSION'),
  ('google.protobuf.internal._api_implementation',
   '/usr/local/lib/python3.6/site-packages/google/protobuf/internal/_api_implementation.cpython-36m-darwin.so',
   'EXTENSION'),
  ('_json',
   '/usr/local/Cellar/python/3.6.5_1/Frameworks/Python.framework/Versions/3.6/lib/python3.6/lib-dynload/_json.cpython-36m-darwin.so',
   'EXTENSION'),
  ('h5py.h5ac',
   '/usr/local/lib/python3.6/site-packages/h5py/h5ac.cpython-36m-darwin.so',
   'EXTENSION'),
  ('h5py.defs',
   '/usr/local/lib/python3.6/site-packages/h5py/defs.cpython-36m-darwin.so',
   'EXTENSION'),
  ('h5py.utils',
   '/usr/local/lib/python3.6/site-packages/h5py/utils.cpython-36m-darwin.so',
   'EXTENSION'),
  ('h5py._proxy',
   '/usr/local/lib/python3.6/site-packages/h5py/_proxy.cpython-36m-darwin.so',
   'EXTENSION'),
  ('h5py._objects',
   '/usr/local/lib/python3.6/site-packages/h5py/_objects.cpython-36m-darwin.so',
   'EXTENSION'),
  ('h5py.h5',
   '/usr/local/lib/python3.6/site-packages/h5py/h5.cpython-36m-darwin.so',
   'EXTENSION'),
  ('h5py.h5l',
   '/usr/local/lib/python3.6/site-packages/h5py/h5l.cpython-36m-darwin.so',
   'EXTENSION'),
  ('h5py.h5o',
   '/usr/local/lib/python3.6/site-packages/h5py/h5o.cpython-36m-darwin.so',
   'EXTENSION'),
  ('h5py.h5i',
   '/usr/local/lib/python3.6/site-packages/h5py/h5i.cpython-36m-darwin.so',
   'EXTENSION'),
  ('h5py.h5p',
   '/usr/local/lib/python3.6/site-packages/h5py/h5p.cpython-36m-darwin.so',
   'EXTENSION'),
  ('h5py.h5t',
   '/usr/local/lib/python3.6/site-packages/h5py/h5t.cpython-36m-darwin.so',
   'EXTENSION'),
  ('h5py.h5s',
   '/usr/local/lib/python3.6/site-packages/h5py/h5s.cpython-36m-darwin.so',
   'EXTENSION'),
  ('h5py.h5r',
   '/usr/local/lib/python3.6/site-packages/h5py/h5r.cpython-36m-darwin.so',
   'EXTENSION'),
  ('h5py.h5g',
   '/usr/local/lib/python3.6/site-packages/h5py/h5g.cpython-36m-darwin.so',
   'EXTENSION'),
  ('h5py.h5fd',
   '/usr/local/lib/python3.6/site-packages/h5py/h5fd.cpython-36m-darwin.so',
   'EXTENSION'),
  ('h5py.h5f',
   '/usr/local/lib/python3.6/site-packages/h5py/h5f.cpython-36m-darwin.so',
   'EXTENSION'),
  ('h5py.h5ds',
   '/usr/local/lib/python3.6/site-packages/h5py/h5ds.cpython-36m-darwin.so',
   'EXTENSION'),
  ('h5py.h5d',
   '/usr/local/lib/python3.6/site-packages/h5py/h5d.cpython-36m-darwin.so',
   'EXTENSION'),
  ('h5py.h5a',
   '/usr/local/lib/python3.6/site-packages/h5py/h5a.cpython-36m-darwin.so',
   'EXTENSION'),
  ('h5py.h5z',
   '/usr/local/lib/python3.6/site-packages/h5py/h5z.cpython-36m-darwin.so',
   'EXTENSION'),
  ('h5py._conv',
   '/usr/local/lib/python3.6/site-packages/h5py/_conv.cpython-36m-darwin.so',
   'EXTENSION'),
  ('h5py._errors',
   '/usr/local/lib/python3.6/site-packages/h5py/_errors.cpython-36m-darwin.so',
   'EXTENSION'),
  ('_csv',
   '/usr/local/Cellar/python/3.6.5_1/Frameworks/Python.framework/Versions/3.6/lib/python3.6/lib-dynload/_csv.cpython-36m-darwin.so',
   'EXTENSION'),
  ('_pywrap_tensorflow_internal',
   '/usr/local/lib/python3.6/site-packages/tensorflow/python/_pywrap_tensorflow_internal.so',
   'EXTENSION'),
  ('PIL._webp',
   '/usr/local/lib/python3.6/site-packages/PIL/_webp.cpython-36m-darwin.so',
   'EXTENSION'),
  ('PIL._imagingtk',
   '/usr/local/lib/python3.6/site-packages/PIL/_imagingtk.cpython-36m-darwin.so',
   'EXTENSION'),
  ('_tkinter',
   '/usr/local/Cellar/python/3.6.5_1/Frameworks/Python.framework/Versions/3.6/lib/python3.6/lib-dynload/_tkinter.cpython-36m-darwin.so',
   'EXTENSION'),
  ('PIL._imaging',
   '/usr/local/lib/python3.6/site-packages/PIL/_imaging.cpython-36m-darwin.so',
   'EXTENSION'),
  ('tensorflow.python.framework.fast_tensor_util',
   '/usr/local/lib/python3.6/site-packages/tensorflow/python/framework/fast_tensor_util.so',
   'EXTENSION'),
  ('fcntl',
   '/usr/local/Cellar/python/3.6.5_1/Frameworks/Python.framework/Versions/3.6/lib/python3.6/lib-dynload/fcntl.cpython-36m-darwin.so',
   'EXTENSION'),
  ('numpy.core._multiarray_tests',
   '/usr/local/lib/python3.6/site-packages/numpy/core/_multiarray_tests.cpython-36m-darwin.so',
   'EXTENSION'),
  ('numpy.core.multiarray',
   '/usr/local/lib/python3.6/site-packages/numpy/core/multiarray.cpython-36m-darwin.so',
   'EXTENSION'),
  ('numpy.core.umath',
   '/usr/local/lib/python3.6/site-packages/numpy/core/umath.cpython-36m-darwin.so',
   'EXTENSION'),
  ('syslog',
   '/usr/local/Cellar/python/3.6.5_1/Frameworks/Python.framework/Versions/3.6/lib/python3.6/lib-dynload/syslog.cpython-36m-darwin.so',
   'EXTENSION'),
  ('_curses',
   '/usr/local/Cellar/python/3.6.5_1/Frameworks/Python.framework/Versions/3.6/lib/python3.6/lib-dynload/_curses.cpython-36m-darwin.so',
   'EXTENSION'),
  ('numpy.random.mtrand',
   '/usr/local/lib/python3.6/site-packages/numpy/random/mtrand.cpython-36m-darwin.so',
   'EXTENSION'),
  ('numpy.fft.fftpack_lite',
   '/usr/local/lib/python3.6/site-packages/numpy/fft/fftpack_lite.cpython-36m-darwin.so',
   'EXTENSION'),
  ('numpy.linalg._umath_linalg',
   '/usr/local/lib/python3.6/site-packages/numpy/linalg/_umath_linalg.cpython-36m-darwin.so',
   'EXTENSION'),
  ('numpy.linalg.lapack_lite',
   '/usr/local/lib/python3.6/site-packages/numpy/linalg/lapack_lite.cpython-36m-darwin.so',
   'EXTENSION'),
  ('libcrypto.1.0.0.dylib',
   '/usr/local/opt/openssl/lib/libcrypto.1.0.0.dylib',
   'BINARY'),
  ('libssl.1.0.0.dylib',
   '/usr/local/opt/openssl/lib/libssl.1.0.0.dylib',
   'BINARY'),
  ('libreadline.7.dylib',
   '/usr/local/opt/readline/lib/libreadline.7.dylib',
   'BINARY'),
  ('liblzma.5.dylib', '/usr/local/opt/xz/lib/liblzma.5.dylib', 'BINARY'),
  ('libavutil.56.22.100.dylib',
   '/usr/local/lib/python3.6/site-packages/cv2/.dylibs/libavutil.56.22.100.dylib',
   'BINARY'),
  ('libavcodec.58.35.100.dylib',
   '/usr/local/lib/python3.6/site-packages/cv2/.dylibs/libavcodec.58.35.100.dylib',
   'BINARY'),
  ('libavformat.58.20.100.dylib',
   '/usr/local/lib/python3.6/site-packages/cv2/.dylibs/libavformat.58.20.100.dylib',
   'BINARY'),
  ('QtTest',
   '/usr/local/lib/python3.6/site-packages/cv2/.dylibs/QtTest',
   'BINARY'),
  ('libswscale.5.3.100.dylib',
   '/usr/local/lib/python3.6/site-packages/cv2/.dylibs/libswscale.5.3.100.dylib',
   'BINARY'),
  ('QtGui',
   '/usr/local/lib/python3.6/site-packages/cv2/.dylibs/QtGui',
   'BINARY'),
  ('libavresample.4.0.0.dylib',
   '/usr/local/lib/python3.6/site-packages/cv2/.dylibs/libavresample.4.0.0.dylib',
   'BINARY'),
  ('QtCore',
   '/usr/local/lib/python3.6/site-packages/cv2/.dylibs/QtCore',
   'BINARY'),
  ('libhdf5.101.dylib',
   '/usr/local/lib/python3.6/site-packages/h5py/.dylibs/libhdf5.101.dylib',
   'BINARY'),
  ('libhdf5_hl.100.dylib',
   '/usr/local/lib/python3.6/site-packages/h5py/.dylibs/libhdf5_hl.100.dylib',
   'BINARY'),
  ('libtensorflow_framework.so',
   '/usr/local/lib/python3.6/site-packages/tensorflow/libtensorflow_framework.so',
   'BINARY'),
  ('libwebpmux.3.dylib',
   '/usr/local/lib/python3.6/site-packages/PIL/.dylibs/libwebpmux.3.dylib',
   'BINARY'),
  ('libwebp.7.dylib',
   '/usr/local/lib/python3.6/site-packages/PIL/.dylibs/libwebp.7.dylib',
   'BINARY'),
  ('libwebpdemux.2.dylib',
   '/usr/local/lib/python3.6/site-packages/PIL/.dylibs/libwebpdemux.2.dylib',
   'BINARY'),
  ('libjpeg.9.dylib',
   '/usr/local/lib/python3.6/site-packages/PIL/.dylibs/libjpeg.9.dylib',
   'BINARY'),
  ('libopenjp2.2.1.0.dylib',
   '/usr/local/lib/python3.6/site-packages/PIL/.dylibs/libopenjp2.2.1.0.dylib',
   'BINARY'),
  ('libtiff.5.dylib',
   '/usr/local/lib/python3.6/site-packages/PIL/.dylibs/libtiff.5.dylib',
   'BINARY'),
  ('libz.1.2.11.dylib',
   '/usr/local/lib/python3.6/site-packages/PIL/.dylibs/libz.1.2.11.dylib',
   'BINARY'),
  ('libopenblasp-r0.3.0.dev.dylib',
   '/usr/local/lib/python3.6/site-packages/numpy/core/../.dylibs/libopenblasp-r0.3.0.dev.dylib',
   'BINARY'),
  ('libswresample.3.3.100.dylib',
   '/usr/local/lib/python3.6/site-packages/cv2/.dylibs/libswresample.3.3.100.dylib',
   'BINARY'),
  ('libmp3lame.0.dylib',
   '/usr/local/lib/python3.6/site-packages/cv2/.dylibs/libmp3lame.0.dylib',
   'BINARY'),
  ('libtheoradec.1.dylib',
   '/usr/local/lib/python3.6/site-packages/cv2/.dylibs/libtheoradec.1.dylib',
   'BINARY'),
  ('libogg.0.dylib',
   '/usr/local/lib/python3.6/site-packages/cv2/.dylibs/libogg.0.dylib',
   'BINARY'),
  ('libvorbisenc.2.dylib',
   '/usr/local/lib/python3.6/site-packages/cv2/.dylibs/libvorbisenc.2.dylib',
   'BINARY'),
  ('libopus.0.dylib',
   '/usr/local/lib/python3.6/site-packages/cv2/.dylibs/libopus.0.dylib',
   'BINARY'),
  ('libvorbis.0.dylib',
   '/usr/local/lib/python3.6/site-packages/cv2/.dylibs/libvorbis.0.dylib',
   'BINARY'),
  ('libsnappy.1.1.7.dylib',
   '/usr/local/lib/python3.6/site-packages/cv2/.dylibs/libsnappy.1.1.7.dylib',
   'BINARY'),
  ('libtheoraenc.1.dylib',
   '/usr/local/lib/python3.6/site-packages/cv2/.dylibs/libtheoraenc.1.dylib',
   'BINARY'),
  ('libaec.0.dylib',
   '/usr/local/lib/python3.6/site-packages/h5py/.dylibs/libaec.0.dylib',
   'BINARY'),
  ('libsz.2.dylib',
   '/usr/local/lib/python3.6/site-packages/h5py/.dylibs/libsz.2.dylib',
   'BINARY'),
  ('libquadmath.0.dylib',
   '/usr/local/lib/python3.6/site-packages/numpy/.dylibs/libquadmath.0.dylib',
   'BINARY'),
  ('libgfortran.3.dylib',
   '/usr/local/lib/python3.6/site-packages/numpy/.dylibs/libgfortran.3.dylib',
   'BINARY'),
  ('libgcc_s.1.dylib',
   '/usr/local/lib/python3.6/site-packages/numpy/.dylibs/libgcc_s.1.dylib',
   'BINARY'),
  ('faster_rcnn_inception_v2_coco_2018_01_28/saved_model/saved_model.pb',
   'faster_rcnn_inception_v2_coco_2018_01_28/saved_model/saved_model.pb',
   'DATA'),
  ('faster_rcnn_inception_v2_coco_2018_01_28/frozen_inference_graph.pb',
   'faster_rcnn_inception_v2_coco_2018_01_28/frozen_inference_graph.pb',
   'DATA'),
  ('faster_rcnn_inception_v2_coco_2018_01_28/checkpoint',
   'faster_rcnn_inception_v2_coco_2018_01_28/checkpoint',
   'DATA'),
  ('faster_rcnn_inception_v2_coco_2018_01_28/model.ckpt.data-00000-of-00001',
   'faster_rcnn_inception_v2_coco_2018_01_28/model.ckpt.data-00000-of-00001',
   'DATA'),
  ('faster_rcnn_inception_v2_coco_2018_01_28/model.ckpt.index',
   'faster_rcnn_inception_v2_coco_2018_01_28/model.ckpt.index',
   'DATA'),
  ('faster_rcnn_inception_v2_coco_2018_01_28/model.ckpt.meta',
   'faster_rcnn_inception_v2_coco_2018_01_28/model.ckpt.meta',
   'DATA'),
  ('faster_rcnn_inception_v2_coco_2018_01_28/pipeline.config',
   'faster_rcnn_inception_v2_coco_2018_01_28/pipeline.config',
   'DATA'),
  ('base_library.zip',
   '/Users/thao/PycharmProjects/PeopleDetection/build/WebcamTracking/base_library.zip',
   'DATA'),
  ('tcl/encoding/cp1254.enc',
   '/System/Library/Frameworks/Tcl.framework/Versions/8.5/Resources/Scripts/encoding/cp1254.enc',
   'DATA'),
  ('tk/safetk.tcl',
   '/System/Library/Frameworks/Tk.framework/Versions/8.5/Resources/Scripts/safetk.tcl',
   'DATA'),
  ('tcl/encoding/iso8859-16.enc',
   '/System/Library/Frameworks/Tcl.framework/Versions/8.5/Resources/Scripts/encoding/iso8859-16.enc',
   'DATA'),
  ('lib2to3/PatternGrammar.txt',
   '/usr/local/Cellar/python/3.6.5_1/Frameworks/Python.framework/Versions/3.6/lib/python3.6/lib2to3/PatternGrammar.txt',
   'DATA'),
  ('tk/menu.tcl',
   '/System/Library/Frameworks/Tk.framework/Versions/8.5/Resources/Scripts/menu.tcl',
   'DATA'),
  ('tcl/encoding/macThai.enc',
   '/System/Library/Frameworks/Tcl.framework/Versions/8.5/Resources/Scripts/encoding/macThai.enc',
   'DATA'),
  ('tk/bgerror.tcl',
   '/System/Library/Frameworks/Tk.framework/Versions/8.5/Resources/Scripts/bgerror.tcl',
   'DATA'),
  ('lib2to3/PatternGrammar3.6.5.final.0.pickle',
   '/usr/local/Cellar/python/3.6.5_1/Frameworks/Python.framework/Versions/3.6/lib/python3.6/lib2to3/PatternGrammar3.6.5.final.0.pickle',
   'DATA'),
  ('tk/msgs/pt.msg',
   '/System/Library/Frameworks/Tk.framework/Versions/8.5/Resources/Scripts/msgs/pt.msg',
   'DATA'),
  ('tcl/msgs/nl.msg',
   '/System/Library/Frameworks/Tcl.framework/Versions/8.5/Resources/Scripts/msgs/nl.msg',
   'DATA'),
  ('tcl/encoding/iso8859-8.enc',
   '/System/Library/Frameworks/Tcl.framework/Versions/8.5/Resources/Scripts/encoding/iso8859-8.enc',
   'DATA'),
  ('tcl/msgs/hu.msg',
   '/System/Library/Frameworks/Tcl.framework/Versions/8.5/Resources/Scripts/msgs/hu.msg',
   'DATA'),
  ('tcl/msgs/mr.msg',
   '/System/Library/Frameworks/Tcl.framework/Versions/8.5/Resources/Scripts/msgs/mr.msg',
   'DATA'),
  ('tcl/msgs/es_cr.msg',
   '/System/Library/Frameworks/Tcl.framework/Versions/8.5/Resources/Scripts/msgs/es_cr.msg',
   'DATA'),
  ('tcl/encoding/cp437.enc',
   '/System/Library/Frameworks/Tcl.framework/Versions/8.5/Resources/Scripts/encoding/cp437.enc',
   'DATA'),
  ('tcl/msgs/ko.msg',
   '/System/Library/Frameworks/Tcl.framework/Versions/8.5/Resources/Scripts/msgs/ko.msg',
   'DATA'),
  ('tk/images/README',
   '/System/Library/Frameworks/Tk.framework/Versions/8.5/Resources/Scripts/images/README',
   'DATA'),
  ('tk/msgs/de.msg',
   '/System/Library/Frameworks/Tk.framework/Versions/8.5/Resources/Scripts/msgs/de.msg',
   'DATA'),
  ('tcl/encoding/euc-kr.enc',
   '/System/Library/Frameworks/Tcl.framework/Versions/8.5/Resources/Scripts/encoding/euc-kr.enc',
   'DATA'),
  ('tcl/msgs/es_hn.msg',
   '/System/Library/Frameworks/Tcl.framework/Versions/8.5/Resources/Scripts/msgs/es_hn.msg',
   'DATA'),
  ('tcl/encoding/macCentEuro.enc',
   '/System/Library/Frameworks/Tcl.framework/Versions/8.5/Resources/Scripts/encoding/macCentEuro.enc',
   'DATA'),
  ('tk/ttk/winTheme.tcl',
   '/System/Library/Frameworks/Tk.framework/Versions/8.5/Resources/Scripts/ttk/winTheme.tcl',
   'DATA'),
  ('tcl/encoding/cp850.enc',
   '/System/Library/Frameworks/Tcl.framework/Versions/8.5/Resources/Scripts/encoding/cp850.enc',
   'DATA'),
  ('tcl/msgs/it_ch.msg',
   '/System/Library/Frameworks/Tcl.framework/Versions/8.5/Resources/Scripts/msgs/it_ch.msg',
   'DATA'),
  ('tcl/encoding/ebcdic.enc',
   '/System/Library/Frameworks/Tcl.framework/Versions/8.5/Resources/Scripts/encoding/ebcdic.enc',
   'DATA'),
  ('tcl/encoding/cp737.enc',
   '/System/Library/Frameworks/Tcl.framework/Versions/8.5/Resources/Scripts/encoding/cp737.enc',
   'DATA'),
  ('tcl/encoding/cp1255.enc',
   '/System/Library/Frameworks/Tcl.framework/Versions/8.5/Resources/Scripts/encoding/cp1255.enc',
   'DATA'),
  ('tcl/msgs/ja.msg',
   '/System/Library/Frameworks/Tcl.framework/Versions/8.5/Resources/Scripts/msgs/ja.msg',
   'DATA'),
  ('tcl/msgs/es_bo.msg',
   '/System/Library/Frameworks/Tcl.framework/Versions/8.5/Resources/Scripts/msgs/es_bo.msg',
   'DATA'),
  ('tk/msgs/nl.msg',
   '/System/Library/Frameworks/Tk.framework/Versions/8.5/Resources/Scripts/msgs/nl.msg',
   'DATA'),
  ('tk/ttk/xpTheme.tcl',
   '/System/Library/Frameworks/Tk.framework/Versions/8.5/Resources/Scripts/ttk/xpTheme.tcl',
   'DATA'),
  ('tcl/msgs/es_cl.msg',
   '/System/Library/Frameworks/Tcl.framework/Versions/8.5/Resources/Scripts/msgs/es_cl.msg',
   'DATA'),
  ('tcl/msgs/ru.msg',
   '/System/Library/Frameworks/Tcl.framework/Versions/8.5/Resources/Scripts/msgs/ru.msg',
   'DATA'),
  ('tcl/msgs/fo_fo.msg',
   '/System/Library/Frameworks/Tcl.framework/Versions/8.5/Resources/Scripts/msgs/fo_fo.msg',
   'DATA'),
  ('tcl/msgs/is.msg',
   '/System/Library/Frameworks/Tcl.framework/Versions/8.5/Resources/Scripts/msgs/is.msg',
   'DATA'),
  ('tcl/msgs/ar.msg',
   '/System/Library/Frameworks/Tcl.framework/Versions/8.5/Resources/Scripts/msgs/ar.msg',
   'DATA'),
  ('tcl/encoding/iso8859-7.enc',
   '/System/Library/Frameworks/Tcl.framework/Versions/8.5/Resources/Scripts/encoding/iso8859-7.enc',
   'DATA'),
  ('tcl/encoding/cp932.enc',
   '/System/Library/Frameworks/Tcl.framework/Versions/8.5/Resources/Scripts/encoding/cp932.enc',
   'DATA'),
  ('tcl/encoding/cp857.enc',
   '/System/Library/Frameworks/Tcl.framework/Versions/8.5/Resources/Scripts/encoding/cp857.enc',
   'DATA'),
  ('tcl/msgs/sq.msg',
   '/System/Library/Frameworks/Tcl.framework/Versions/8.5/Resources/Scripts/msgs/sq.msg',
   'DATA'),
  ('tcl/encoding/koi8-r.enc',
   '/System/Library/Frameworks/Tcl.framework/Versions/8.5/Resources/Scripts/encoding/koi8-r.enc',
   'DATA'),
  ('tcl/msgs/fr_ch.msg',
   '/System/Library/Frameworks/Tcl.framework/Versions/8.5/Resources/Scripts/msgs/fr_ch.msg',
   'DATA'),
  ('tcl/msgs/de.msg',
   '/System/Library/Frameworks/Tcl.framework/Versions/8.5/Resources/Scripts/msgs/de.msg',
   'DATA'),
  ('tcl/msgs/kl_gl.msg',
   '/System/Library/Frameworks/Tcl.framework/Versions/8.5/Resources/Scripts/msgs/kl_gl.msg',
   'DATA'),
  ('tcl/msgs/eu.msg',
   '/System/Library/Frameworks/Tcl.framework/Versions/8.5/Resources/Scripts/msgs/eu.msg',
   'DATA'),
  ('tk/xmfbox.tcl',
   '/System/Library/Frameworks/Tk.framework/Versions/8.5/Resources/Scripts/xmfbox.tcl',
   'DATA'),
  ('tcl/encoding/iso8859-3.enc',
   '/System/Library/Frameworks/Tcl.framework/Versions/8.5/Resources/Scripts/encoding/iso8859-3.enc',
   'DATA'),
  ('tcl/encoding/iso8859-15.enc',
   '/System/Library/Frameworks/Tcl.framework/Versions/8.5/Resources/Scripts/encoding/iso8859-15.enc',
   'DATA'),
  ('tcl/msgs/ko_kr.msg',
   '/System/Library/Frameworks/Tcl.framework/Versions/8.5/Resources/Scripts/msgs/ko_kr.msg',
   'DATA'),
  ('tcl/encoding/cp862.enc',
   '/System/Library/Frameworks/Tcl.framework/Versions/8.5/Resources/Scripts/encoding/cp862.enc',
   'DATA'),
  ('tcl/encoding/euc-cn.enc',
   '/System/Library/Frameworks/Tcl.framework/Versions/8.5/Resources/Scripts/encoding/euc-cn.enc',
   'DATA'),
  ('tk/palette.tcl',
   '/System/Library/Frameworks/Tk.framework/Versions/8.5/Resources/Scripts/palette.tcl',
   'DATA'),
  ('tk/tkfbox.tcl',
   '/System/Library/Frameworks/Tk.framework/Versions/8.5/Resources/Scripts/tkfbox.tcl',
   'DATA'),
  ('tcl/msgs/en_gb.msg',
   '/System/Library/Frameworks/Tcl.framework/Versions/8.5/Resources/Scripts/msgs/en_gb.msg',
   'DATA'),
  ('tcl/msgs/pt_br.msg',
   '/System/Library/Frameworks/Tcl.framework/Versions/8.5/Resources/Scripts/msgs/pt_br.msg',
   'DATA'),
  ('tcl/msgs/nn.msg',
   '/System/Library/Frameworks/Tcl.framework/Versions/8.5/Resources/Scripts/msgs/nn.msg',
   'DATA'),
  ('tcl/msgs/sk.msg',
   '/System/Library/Frameworks/Tcl.framework/Versions/8.5/Resources/Scripts/msgs/sk.msg',
   'DATA'),
  ('tk/ttk/spinbox.tcl',
   '/System/Library/Frameworks/Tk.framework/Versions/8.5/Resources/Scripts/ttk/spinbox.tcl',
   'DATA'),
  ('tcl/opt0.4/optparse.tcl',
   '/System/Library/Frameworks/Tcl.framework/Versions/8.5/Resources/Scripts/opt0.4/optparse.tcl',
   'DATA'),
  ('tk/listbox.tcl',
   '/System/Library/Frameworks/Tk.framework/Versions/8.5/Resources/Scripts/listbox.tcl',
   'DATA'),
  ('tcl/tclIndex',
   '/System/Library/Frameworks/Tcl.framework/Versions/8.5/Resources/Scripts/tclIndex',
   'DATA'),
  ('tcl/msgs/de_at.msg',
   '/System/Library/Frameworks/Tcl.framework/Versions/8.5/Resources/Scripts/msgs/de_at.msg',
   'DATA'),
  ('tcl/encoding/cp855.enc',
   '/System/Library/Frameworks/Tcl.framework/Versions/8.5/Resources/Scripts/encoding/cp855.enc',
   'DATA'),
  ('tcl/encoding/macJapan.enc',
   '/System/Library/Frameworks/Tcl.framework/Versions/8.5/Resources/Scripts/encoding/macJapan.enc',
   'DATA'),
  ('tk/tkAppInit.c',
   '/System/Library/Frameworks/Tk.framework/Versions/8.5/Resources/Scripts/tkAppInit.c',
   'DATA'),
  ('tcl/msgs/hi_in.msg',
   '/System/Library/Frameworks/Tcl.framework/Versions/8.5/Resources/Scripts/msgs/hi_in.msg',
   'DATA'),
  ('tcl/http1.0/http.tcl',
   '/System/Library/Frameworks/Tcl.framework/Versions/8.5/Resources/Scripts/http1.0/http.tcl',
   'DATA'),
  ('tk/msgs/da.msg',
   '/System/Library/Frameworks/Tk.framework/Versions/8.5/Resources/Scripts/msgs/da.msg',
   'DATA'),
  ('tcl/msgs/el.msg',
   '/System/Library/Frameworks/Tcl.framework/Versions/8.5/Resources/Scripts/msgs/el.msg',
   'DATA'),
  ('tcl/encoding/cp874.enc',
   '/System/Library/Frameworks/Tcl.framework/Versions/8.5/Resources/Scripts/encoding/cp874.enc',
   'DATA'),
  ('tk/unsupported.tcl',
   '/System/Library/Frameworks/Tk.framework/Versions/8.5/Resources/Scripts/unsupported.tcl',
   'DATA'),
  ('tcl/msgs/es_uy.msg',
   '/System/Library/Frameworks/Tcl.framework/Versions/8.5/Resources/Scripts/msgs/es_uy.msg',
   'DATA'),
  ('tcl/encoding/iso8859-14.enc',
   '/System/Library/Frameworks/Tcl.framework/Versions/8.5/Resources/Scripts/encoding/iso8859-14.enc',
   'DATA'),
  ('tcl/msgs/es_sv.msg',
   '/System/Library/Frameworks/Tcl.framework/Versions/8.5/Resources/Scripts/msgs/es_sv.msg',
   'DATA'),
  ('tcl/msgs/ms.msg',
   '/System/Library/Frameworks/Tcl.framework/Versions/8.5/Resources/Scripts/msgs/ms.msg',
   'DATA'),
  ('tk/ttk/altTheme.tcl',
   '/System/Library/Frameworks/Tk.framework/Versions/8.5/Resources/Scripts/ttk/altTheme.tcl',
   'DATA'),
  ('tcl/msgs/en_bw.msg',
   '/System/Library/Frameworks/Tcl.framework/Versions/8.5/Resources/Scripts/msgs/en_bw.msg',
   'DATA'),
  ('tcl/msgs/fr_ca.msg',
   '/System/Library/Frameworks/Tcl.framework/Versions/8.5/Resources/Scripts/msgs/fr_ca.msg',
   'DATA'),
  ('tcl/msgs/th.msg',
   '/System/Library/Frameworks/Tcl.framework/Versions/8.5/Resources/Scripts/msgs/th.msg',
   'DATA'),
  ('tcl/msgs/kl.msg',
   '/System/Library/Frameworks/Tcl.framework/Versions/8.5/Resources/Scripts/msgs/kl.msg',
   'DATA'),
  ('tcl/msgs/fr_be.msg',
   '/System/Library/Frameworks/Tcl.framework/Versions/8.5/Resources/Scripts/msgs/fr_be.msg',
   'DATA'),
  ('tcl/msgs/fa_in.msg',
   '/System/Library/Frameworks/Tcl.framework/Versions/8.5/Resources/Scripts/msgs/fa_in.msg',
   'DATA'),
  ('tk/obsolete.tcl',
   '/System/Library/Frameworks/Tk.framework/Versions/8.5/Resources/Scripts/obsolete.tcl',
   'DATA'),
  ('tcl/encoding/cp1252.enc',
   '/System/Library/Frameworks/Tcl.framework/Versions/8.5/Resources/Scripts/encoding/cp1252.enc',
   'DATA'),
  ('include/python3.6m/pyconfig.h',
   '/usr/local/Cellar/python/3.6.5_1/Frameworks/Python.framework/Versions/3.6/include/python3.6m/pyconfig.h',
   'DATA'),
  ('tcl/msgs/eo.msg',
   '/System/Library/Frameworks/Tcl.framework/Versions/8.5/Resources/Scripts/msgs/eo.msg',
   'DATA'),
  ('tcl/msgs/ru_ua.msg',
   '/System/Library/Frameworks/Tcl.framework/Versions/8.5/Resources/Scripts/msgs/ru_ua.msg',
   'DATA'),
  ('tcl/msgs/uk.msg',
   '/System/Library/Frameworks/Tcl.framework/Versions/8.5/Resources/Scripts/msgs/uk.msg',
   'DATA'),
  ('tcl/parray.tcl',
   '/System/Library/Frameworks/Tcl.framework/Versions/8.5/Resources/Scripts/parray.tcl',
   'DATA'),
  ('tk/images/pwrdLogo200.gif',
   '/System/Library/Frameworks/Tk.framework/Versions/8.5/Resources/Scripts/images/pwrdLogo200.gif',
   'DATA'),
  ('tcl/word.tcl',
   '/System/Library/Frameworks/Tcl.framework/Versions/8.5/Resources/Scripts/word.tcl',
   'DATA'),
  ('tcl/encoding/iso2022.enc',
   '/System/Library/Frameworks/Tcl.framework/Versions/8.5/Resources/Scripts/encoding/iso2022.enc',
   'DATA'),
  ('tk/images/pwrdLogo175.gif',
   '/System/Library/Frameworks/Tk.framework/Versions/8.5/Resources/Scripts/images/pwrdLogo175.gif',
   'DATA'),
  ('tk/ttk/progress.tcl',
   '/System/Library/Frameworks/Tk.framework/Versions/8.5/Resources/Scripts/ttk/progress.tcl',
   'DATA'),
  ('tk/ttk/cursors.tcl',
   '/System/Library/Frameworks/Tk.framework/Versions/8.5/Resources/Scripts/ttk/cursors.tcl',
   'DATA'),
  ('tcl/encoding/ksc5601.enc',
   '/System/Library/Frameworks/Tcl.framework/Versions/8.5/Resources/Scripts/encoding/ksc5601.enc',
   'DATA'),
  ('tk/tk.tcl',
   '/System/Library/Frameworks/Tk.framework/Versions/8.5/Resources/Scripts/tk.tcl',
   'DATA'),
  ('tk/ttk/aquaTheme.tcl',
   '/System/Library/Frameworks/Tk.framework/Versions/8.5/Resources/Scripts/ttk/aquaTheme.tcl',
   'DATA'),
  ('tcl/encoding/macCyrillic.enc',
   '/System/Library/Frameworks/Tcl.framework/Versions/8.5/Resources/Scripts/encoding/macCyrillic.enc',
   'DATA'),
  ('tk/clrpick.tcl',
   '/System/Library/Frameworks/Tk.framework/Versions/8.5/Resources/Scripts/clrpick.tcl',
   'DATA'),
  ('tcl/msgs/zh.msg',
   '/System/Library/Frameworks/Tcl.framework/Versions/8.5/Resources/Scripts/msgs/zh.msg',
   'DATA'),
  ('tcl/encoding/symbol.enc',
   '/System/Library/Frameworks/Tcl.framework/Versions/8.5/Resources/Scripts/encoding/symbol.enc',
   'DATA'),
  ('tcl/msgs/en_ca.msg',
   '/System/Library/Frameworks/Tcl.framework/Versions/8.5/Resources/Scripts/msgs/en_ca.msg',
   'DATA'),
  ('tcl/msgs/sr.msg',
   '/System/Library/Frameworks/Tcl.framework/Versions/8.5/Resources/Scripts/msgs/sr.msg',
   'DATA'),
  ('tk/panedwindow.tcl',
   '/System/Library/Frameworks/Tk.framework/Versions/8.5/Resources/Scripts/panedwindow.tcl',
   'DATA'),
  ('tk/msgs/eo.msg',
   '/System/Library/Frameworks/Tk.framework/Versions/8.5/Resources/Scripts/msgs/eo.msg',
   'DATA'),
  ('tk/msgs/pl.msg',
   '/System/Library/Frameworks/Tk.framework/Versions/8.5/Resources/Scripts/msgs/pl.msg',
   'DATA'),
  ('tcl/encoding/cp1257.enc',
   '/System/Library/Frameworks/Tcl.framework/Versions/8.5/Resources/Scripts/encoding/cp1257.enc',
   'DATA'),
  ('tk/focus.tcl',
   '/System/Library/Frameworks/Tk.framework/Versions/8.5/Resources/Scripts/focus.tcl',
   'DATA'),
  ('tcl/encoding/cp775.enc',
   '/System/Library/Frameworks/Tcl.framework/Versions/8.5/Resources/Scripts/encoding/cp775.enc',
   'DATA'),
  ('tcl/http1.0/pkgIndex.tcl',
   '/System/Library/Frameworks/Tcl.framework/Versions/8.5/Resources/Scripts/http1.0/pkgIndex.tcl',
   'DATA'),
  ('tcl/encoding/macUkraine.enc',
   '/System/Library/Frameworks/Tcl.framework/Versions/8.5/Resources/Scripts/encoding/macUkraine.enc',
   'DATA'),
  ('tcl/msgs/en_ie.msg',
   '/System/Library/Frameworks/Tcl.framework/Versions/8.5/Resources/Scripts/msgs/en_ie.msg',
   'DATA'),
  ('tcl/msgs/es_do.msg',
   '/System/Library/Frameworks/Tcl.framework/Versions/8.5/Resources/Scripts/msgs/es_do.msg',
   'DATA'),
  ('tcl/msgs/en_za.msg',
   '/System/Library/Frameworks/Tcl.framework/Versions/8.5/Resources/Scripts/msgs/en_za.msg',
   'DATA'),
  ('tk/ttk/treeview.tcl',
   '/System/Library/Frameworks/Tk.framework/Versions/8.5/Resources/Scripts/ttk/treeview.tcl',
   'DATA'),
  ('tcl/msgs/it.msg',
   '/System/Library/Frameworks/Tcl.framework/Versions/8.5/Resources/Scripts/msgs/it.msg',
   'DATA'),
  ('tcl/encoding/macTurkish.enc',
   '/System/Library/Frameworks/Tcl.framework/Versions/8.5/Resources/Scripts/encoding/macTurkish.enc',
   'DATA'),
  ('tcl/msgs/ga_ie.msg',
   '/System/Library/Frameworks/Tcl.framework/Versions/8.5/Resources/Scripts/msgs/ga_ie.msg',
   'DATA'),
  ('tcl/encoding/macRomania.enc',
   '/System/Library/Frameworks/Tcl.framework/Versions/8.5/Resources/Scripts/encoding/macRomania.enc',
   'DATA'),
  ('tcl/encoding/tis-620.enc',
   '/System/Library/Frameworks/Tcl.framework/Versions/8.5/Resources/Scripts/encoding/tis-620.enc',
   'DATA'),
  ('tcl/encoding/macCroatian.enc',
   '/System/Library/Frameworks/Tcl.framework/Versions/8.5/Resources/Scripts/encoding/macCroatian.enc',
   'DATA'),
  ('tk/ttk/combobox.tcl',
   '/System/Library/Frameworks/Tk.framework/Versions/8.5/Resources/Scripts/ttk/combobox.tcl',
   'DATA'),
  ('tcl/msgs/he.msg',
   '/System/Library/Frameworks/Tcl.framework/Versions/8.5/Resources/Scripts/msgs/he.msg',
   'DATA'),
  ('tcl/msgs/ro.msg',
   '/System/Library/Frameworks/Tcl.framework/Versions/8.5/Resources/Scripts/msgs/ro.msg',
   'DATA'),
  ('tcl/encoding/iso2022-kr.enc',
   '/System/Library/Frameworks/Tcl.framework/Versions/8.5/Resources/Scripts/encoding/iso2022-kr.enc',
   'DATA'),
  ('tcl/msgs/ca.msg',
   '/System/Library/Frameworks/Tcl.framework/Versions/8.5/Resources/Scripts/msgs/ca.msg',
   'DATA'),
  ('tcl/msgs/gl.msg',
   '/System/Library/Frameworks/Tcl.framework/Versions/8.5/Resources/Scripts/msgs/gl.msg',
   'DATA'),
  ('tcl/encoding/cp1251.enc',
   '/System/Library/Frameworks/Tcl.framework/Versions/8.5/Resources/Scripts/encoding/cp1251.enc',
   'DATA'),
  ('tcl/msgs/be.msg',
   '/System/Library/Frameworks/Tcl.framework/Versions/8.5/Resources/Scripts/msgs/be.msg',
   'DATA'),
  ('tk/images/logo.eps',
   '/System/Library/Frameworks/Tk.framework/Versions/8.5/Resources/Scripts/images/logo.eps',
   'DATA'),
  ('tcl/msgs/es_pe.msg',
   '/System/Library/Frameworks/Tcl.framework/Versions/8.5/Resources/Scripts/msgs/es_pe.msg',
   'DATA'),
  ('tcl/msgs/nb.msg',
   '/System/Library/Frameworks/Tcl.framework/Versions/8.5/Resources/Scripts/msgs/nb.msg',
   'DATA'),
  ('tk/scrlbar.tcl',
   '/System/Library/Frameworks/Tk.framework/Versions/8.5/Resources/Scripts/scrlbar.tcl',
   'DATA'),
  ('lib2to3/tests/data/README',
   '/usr/local/Cellar/python/3.6.5_1/Frameworks/Python.framework/Versions/3.6/lib/python3.6/lib2to3/tests/data/README',
   'DATA'),
  ('tcl/msgs/gv.msg',
   '/System/Library/Frameworks/Tcl.framework/Versions/8.5/Resources/Scripts/msgs/gv.msg',
   'DATA'),
  ('tcl/msgs/mt.msg',
   '/System/Library/Frameworks/Tcl.framework/Versions/8.5/Resources/Scripts/msgs/mt.msg',
   'DATA'),
  ('tcl/msgs/fr.msg',
   '/System/Library/Frameworks/Tcl.framework/Versions/8.5/Resources/Scripts/msgs/fr.msg',
   'DATA'),
  ('tcl/msgs/en_nz.msg',
   '/System/Library/Frameworks/Tcl.framework/Versions/8.5/Resources/Scripts/msgs/en_nz.msg',
   'DATA'),
  ('tcl/msgs/en_hk.msg',
   '/System/Library/Frameworks/Tcl.framework/Versions/8.5/Resources/Scripts/msgs/en_hk.msg',
   'DATA'),
  ('tcl/encoding/iso8859-5.enc',
   '/System/Library/Frameworks/Tcl.framework/Versions/8.5/Resources/Scripts/encoding/iso8859-5.enc',
   'DATA'),
  ('tcl/encoding/iso8859-13.enc',
   '/System/Library/Frameworks/Tcl.framework/Versions/8.5/Resources/Scripts/encoding/iso8859-13.enc',
   'DATA'),
  ('tcl/msgs/ar_jo.msg',
   '/System/Library/Frameworks/Tcl.framework/Versions/8.5/Resources/Scripts/msgs/ar_jo.msg',
   'DATA'),
  ('tcl/history.tcl',
   '/System/Library/Frameworks/Tcl.framework/Versions/8.5/Resources/Scripts/history.tcl',
   'DATA'),
  ('tcl/msgs/lv.msg',
   '/System/Library/Frameworks/Tcl.framework/Versions/8.5/Resources/Scripts/msgs/lv.msg',
   'DATA'),
  ('tk/console.tcl',
   '/System/Library/Frameworks/Tk.framework/Versions/8.5/Resources/Scripts/console.tcl',
   'DATA'),
  ('tcl/msgs/pt.msg',
   '/System/Library/Frameworks/Tcl.framework/Versions/8.5/Resources/Scripts/msgs/pt.msg',
   'DATA'),
  ('tk/text.tcl',
   '/System/Library/Frameworks/Tk.framework/Versions/8.5/Resources/Scripts/text.tcl',
   'DATA'),
  ('tk/dialog.tcl',
   '/System/Library/Frameworks/Tk.framework/Versions/8.5/Resources/Scripts/dialog.tcl',
   'DATA'),
  ('tcl/msgs/cs.msg',
   '/System/Library/Frameworks/Tcl.framework/Versions/8.5/Resources/Scripts/msgs/cs.msg',
   'DATA'),
  ('tk/msgs/it.msg',
   '/System/Library/Frameworks/Tk.framework/Versions/8.5/Resources/Scripts/msgs/it.msg',
   'DATA'),
  ('tcl/msgs/bn.msg',
   '/System/Library/Frameworks/Tcl.framework/Versions/8.5/Resources/Scripts/msgs/bn.msg',
   'DATA'),
  ('tcl/tclDTrace.d',
   '/System/Library/Frameworks/Tcl.framework/Versions/8.5/Resources/Scripts/tclDTrace.d',
   'DATA'),
  ('tcl/msgs/zh_cn.msg',
   '/System/Library/Frameworks/Tcl.framework/Versions/8.5/Resources/Scripts/msgs/zh_cn.msg',
   'DATA'),
  ('tk/images/logo64.gif',
   '/System/Library/Frameworks/Tk.framework/Versions/8.5/Resources/Scripts/images/logo64.gif',
   'DATA'),
  ('tcl/msgs/en_be.msg',
   '/System/Library/Frameworks/Tcl.framework/Versions/8.5/Resources/Scripts/msgs/en_be.msg',
   'DATA'),
  ('tcl/encoding/cp865.enc',
   '/System/Library/Frameworks/Tcl.framework/Versions/8.5/Resources/Scripts/encoding/cp865.enc',
   'DATA'),
  ('tk/optMenu.tcl',
   '/System/Library/Frameworks/Tk.framework/Versions/8.5/Resources/Scripts/optMenu.tcl',
   'DATA'),
  ('tk/ttk/sizegrip.tcl',
   '/System/Library/Frameworks/Tk.framework/Versions/8.5/Resources/Scripts/ttk/sizegrip.tcl',
   'DATA'),
  ('tcl/encoding/cp852.enc',
   '/System/Library/Frameworks/Tcl.framework/Versions/8.5/Resources/Scripts/encoding/cp852.enc',
   'DATA'),
  ('tcl/encoding/jis0201.enc',
   '/System/Library/Frameworks/Tcl.framework/Versions/8.5/Resources/Scripts/encoding/jis0201.enc',
   'DATA'),
  ('tcl/encoding/ascii.enc',
   '/System/Library/Frameworks/Tcl.framework/Versions/8.5/Resources/Scripts/encoding/ascii.enc',
   'DATA'),
  ('lib2to3/Grammar3.6.5.final.0.pickle',
   '/usr/local/Cellar/python/3.6.5_1/Frameworks/Python.framework/Versions/3.6/lib/python3.6/lib2to3/Grammar3.6.5.final.0.pickle',
   'DATA'),
  ('tcl/msgs/es_pr.msg',
   '/System/Library/Frameworks/Tcl.framework/Versions/8.5/Resources/Scripts/msgs/es_pr.msg',
   'DATA'),
  ('tcl/encoding/iso8859-2.enc',
   '/System/Library/Frameworks/Tcl.framework/Versions/8.5/Resources/Scripts/encoding/iso8859-2.enc',
   'DATA'),
  ('tcl/encoding/gb1988.enc',
   '/System/Library/Frameworks/Tcl.framework/Versions/8.5/Resources/Scripts/encoding/gb1988.enc',
   'DATA'),
  ('tcl/msgs/nl_be.msg',
   '/System/Library/Frameworks/Tcl.framework/Versions/8.5/Resources/Scripts/msgs/nl_be.msg',
   'DATA'),
  ('tk/ttk/scrollbar.tcl',
   '/System/Library/Frameworks/Tk.framework/Versions/8.5/Resources/Scripts/ttk/scrollbar.tcl',
   'DATA'),
  ('tcl/msgs/es_pa.msg',
   '/System/Library/Frameworks/Tcl.framework/Versions/8.5/Resources/Scripts/msgs/es_pa.msg',
   'DATA'),
  ('tcl/encoding/iso8859-1.enc',
   '/System/Library/Frameworks/Tcl.framework/Versions/8.5/Resources/Scripts/encoding/iso8859-1.enc',
   'DATA'),
  ('tk/ttk/utils.tcl',
   '/System/Library/Frameworks/Tk.framework/Versions/8.5/Resources/Scripts/ttk/utils.tcl',
   'DATA'),
  ('tk/msgs/el.msg',
   '/System/Library/Frameworks/Tk.framework/Versions/8.5/Resources/Scripts/msgs/el.msg',
   'DATA'),
  ('tk/choosedir.tcl',
   '/System/Library/Frameworks/Tk.framework/Versions/8.5/Resources/Scripts/choosedir.tcl',
   'DATA'),
  ('tk/images/logoMed.gif',
   '/System/Library/Frameworks/Tk.framework/Versions/8.5/Resources/Scripts/images/logoMed.gif',
   'DATA'),
  ('tcl/encoding/cp1250.enc',
   '/System/Library/Frameworks/Tcl.framework/Versions/8.5/Resources/Scripts/encoding/cp1250.enc',
   'DATA'),
  ('tcl/encoding/jis0208.enc',
   '/System/Library/Frameworks/Tcl.framework/Versions/8.5/Resources/Scripts/encoding/jis0208.enc',
   'DATA'),
  ('tcl/encoding/macDingbats.enc',
   '/System/Library/Frameworks/Tcl.framework/Versions/8.5/Resources/Scripts/encoding/macDingbats.enc',
   'DATA'),
  ('tcl/msgs/ms_my.msg',
   '/System/Library/Frameworks/Tcl.framework/Versions/8.5/Resources/Scripts/msgs/ms_my.msg',
   'DATA'),
  ('tcl/msgs/af.msg',
   '/System/Library/Frameworks/Tcl.framework/Versions/8.5/Resources/Scripts/msgs/af.msg',
   'DATA'),
  ('tcl/encoding/iso8859-9.enc',
   '/System/Library/Frameworks/Tcl.framework/Versions/8.5/Resources/Scripts/encoding/iso8859-9.enc',
   'DATA'),
  ('tk/pkgIndex.tcl',
   '/System/Library/Frameworks/Tk.framework/Versions/8.5/Resources/Scripts/pkgIndex.tcl',
   'DATA'),
  ('tcl/msgs/gv_gb.msg',
   '/System/Library/Frameworks/Tcl.framework/Versions/8.5/Resources/Scripts/msgs/gv_gb.msg',
   'DATA'),
  ('tcl/msgs/te_in.msg',
   '/System/Library/Frameworks/Tcl.framework/Versions/8.5/Resources/Scripts/msgs/te_in.msg',
   'DATA'),
  ('tcl/encoding/gb2312-raw.enc',
   '/System/Library/Frameworks/Tcl.framework/Versions/8.5/Resources/Scripts/encoding/gb2312-raw.enc',
   'DATA'),
  ('tcl/msgs/fo.msg',
   '/System/Library/Frameworks/Tcl.framework/Versions/8.5/Resources/Scripts/msgs/fo.msg',
   'DATA'),
  ('tk/spinbox.tcl',
   '/System/Library/Frameworks/Tk.framework/Versions/8.5/Resources/Scripts/spinbox.tcl',
   'DATA'),
  ('tk/msgbox.tcl',
   '/System/Library/Frameworks/Tk.framework/Versions/8.5/Resources/Scripts/msgbox.tcl',
   'DATA'),
  ('tk/ttk/entry.tcl',
   '/System/Library/Frameworks/Tk.framework/Versions/8.5/Resources/Scripts/ttk/entry.tcl',
   'DATA'),
  ('tcl/msgs/es_co.msg',
   '/System/Library/Frameworks/Tcl.framework/Versions/8.5/Resources/Scripts/msgs/es_co.msg',
   'DATA'),
  ('tcl/msgs/ar_in.msg',
   '/System/Library/Frameworks/Tcl.framework/Versions/8.5/Resources/Scripts/msgs/ar_in.msg',
   'DATA'),
  ('tcl/msgs/en_ph.msg',
   '/System/Library/Frameworks/Tcl.framework/Versions/8.5/Resources/Scripts/msgs/en_ph.msg',
   'DATA'),
  ('tcl/msgs/sw.msg',
   '/System/Library/Frameworks/Tcl.framework/Versions/8.5/Resources/Scripts/msgs/sw.msg',
   'DATA'),
  ('tcl/encoding/iso8859-4.enc',
   '/System/Library/Frameworks/Tcl.framework/Versions/8.5/Resources/Scripts/encoding/iso8859-4.enc',
   'DATA'),
  ('tcl/tm.tcl',
   '/System/Library/Frameworks/Tcl.framework/Versions/8.5/Resources/Scripts/tm.tcl',
   'DATA'),
  ('tcl/encoding/gb2312.enc',
   '/System/Library/Frameworks/Tcl.framework/Versions/8.5/Resources/Scripts/encoding/gb2312.enc',
   'DATA'),
  ('tk/images/pwrdLogo75.gif',
   '/System/Library/Frameworks/Tk.framework/Versions/8.5/Resources/Scripts/images/pwrdLogo75.gif',
   'DATA'),
  ('tcl/msgs/es.msg',
   '/System/Library/Frameworks/Tcl.framework/Versions/8.5/Resources/Scripts/msgs/es.msg',
   'DATA'),
  ('tcl/auto.tcl',
   '/System/Library/Frameworks/Tcl.framework/Versions/8.5/Resources/Scripts/auto.tcl',
   'DATA'),
  ('tcl/msgs/kw_gb.msg',
   '/System/Library/Frameworks/Tcl.framework/Versions/8.5/Resources/Scripts/msgs/kw_gb.msg',
   'DATA'),
  ('tk/msgs/en_gb.msg',
   '/System/Library/Frameworks/Tk.framework/Versions/8.5/Resources/Scripts/msgs/en_gb.msg',
   'DATA'),
  ('tk/ttk/panedwindow.tcl',
   '/System/Library/Frameworks/Tk.framework/Versions/8.5/Resources/Scripts/ttk/panedwindow.tcl',
   'DATA'),
  ('tcl/package.tcl',
   '/System/Library/Frameworks/Tcl.framework/Versions/8.5/Resources/Scripts/package.tcl',
   'DATA'),
  ('tcl/encoding/cp869.enc',
   '/System/Library/Frameworks/Tcl.framework/Versions/8.5/Resources/Scripts/encoding/cp869.enc',
   'DATA'),
  ('tcl/msgs/kw.msg',
   '/System/Library/Frameworks/Tcl.framework/Versions/8.5/Resources/Scripts/msgs/kw.msg',
   'DATA'),
  ('tcl/msgs/es_py.msg',
   '/System/Library/Frameworks/Tcl.framework/Versions/8.5/Resources/Scripts/msgs/es_py.msg',
   'DATA'),
  ('tcl/encoding/cp1258.enc',
   '/System/Library/Frameworks/Tcl.framework/Versions/8.5/Resources/Scripts/encoding/cp1258.enc',
   'DATA'),
  ('tcl/msgs/hi.msg',
   '/System/Library/Frameworks/Tcl.framework/Versions/8.5/Resources/Scripts/msgs/hi.msg',
   'DATA'),
  ('tcl/msgs/mk.msg',
   '/System/Library/Frameworks/Tcl.framework/Versions/8.5/Resources/Scripts/msgs/mk.msg',
   'DATA'),
  ('tk/msgs/fr.msg',
   '/System/Library/Frameworks/Tk.framework/Versions/8.5/Resources/Scripts/msgs/fr.msg',
   'DATA'),
  ('tcl/msgs/da.msg',
   '/System/Library/Frameworks/Tcl.framework/Versions/8.5/Resources/Scripts/msgs/da.msg',
   'DATA'),
  ('tcl/msgs/sl.msg',
   '/System/Library/Frameworks/Tcl.framework/Versions/8.5/Resources/Scripts/msgs/sl.msg',
   'DATA'),
  ('tcl/encoding/euc-jp.enc',
   '/System/Library/Frameworks/Tcl.framework/Versions/8.5/Resources/Scripts/encoding/euc-jp.enc',
   'DATA'),
  ('tcl/encoding/iso2022-jp.enc',
   '/System/Library/Frameworks/Tcl.framework/Versions/8.5/Resources/Scripts/encoding/iso2022-jp.enc',
   'DATA'),
  ('tk/images/pwrdLogo.eps',
   '/System/Library/Frameworks/Tk.framework/Versions/8.5/Resources/Scripts/images/pwrdLogo.eps',
   'DATA'),
  ('tcl/msgs/eu_es.msg',
   '/System/Library/Frameworks/Tcl.framework/Versions/8.5/Resources/Scripts/msgs/eu_es.msg',
   'DATA'),
  ('tcl/init.tcl',
   '/System/Library/Frameworks/Tcl.framework/Versions/8.5/Resources/Scripts/init.tcl',
   'DATA'),
  ('tcl/encoding/cp949.enc',
   '/System/Library/Frameworks/Tcl.framework/Versions/8.5/Resources/Scripts/encoding/cp949.enc',
   'DATA'),
  ('tcl/encoding/cp1253.enc',
   '/System/Library/Frameworks/Tcl.framework/Versions/8.5/Resources/Scripts/encoding/cp1253.enc',
   'DATA'),
  ('tcl/opt0.4/pkgIndex.tcl',
   '/System/Library/Frameworks/Tcl.framework/Versions/8.5/Resources/Scripts/opt0.4/pkgIndex.tcl',
   'DATA'),
  ('tk/tclIndex',
   '/System/Library/Frameworks/Tk.framework/Versions/8.5/Resources/Scripts/tclIndex',
   'DATA'),
  ('tk/images/pwrdLogo150.gif',
   '/System/Library/Frameworks/Tk.framework/Versions/8.5/Resources/Scripts/images/pwrdLogo150.gif',
   'DATA'),
  ('tcl/msgs/id_id.msg',
   '/System/Library/Frameworks/Tcl.framework/Versions/8.5/Resources/Scripts/msgs/id_id.msg',
   'DATA'),
  ('tk/images/tai-ku.gif',
   '/System/Library/Frameworks/Tk.framework/Versions/8.5/Resources/Scripts/images/tai-ku.gif',
   'DATA'),
  ('tcl/msgs/en_au.msg',
   '/System/Library/Frameworks/Tcl.framework/Versions/8.5/Resources/Scripts/msgs/en_au.msg',
   'DATA'),
  ('tk/msgs/hu.msg',
   '/System/Library/Frameworks/Tk.framework/Versions/8.5/Resources/Scripts/msgs/hu.msg',
   'DATA'),
  ('tcl/encoding/macIceland.enc',
   '/System/Library/Frameworks/Tcl.framework/Versions/8.5/Resources/Scripts/encoding/macIceland.enc',
   'DATA'),
  ('tcl/msgs/bn_in.msg',
   '/System/Library/Frameworks/Tcl.framework/Versions/8.5/Resources/Scripts/msgs/bn_in.msg',
   'DATA'),
  ('tcl/msgs/lt.msg',
   '/System/Library/Frameworks/Tcl.framework/Versions/8.5/Resources/Scripts/msgs/lt.msg',
   'DATA'),
  ('tcl/msgs/af_za.msg',
   '/System/Library/Frameworks/Tcl.framework/Versions/8.5/Resources/Scripts/msgs/af_za.msg',
   'DATA'),
  ('tcl/msgs/kok_in.msg',
   '/System/Library/Frameworks/Tcl.framework/Versions/8.5/Resources/Scripts/msgs/kok_in.msg',
   'DATA'),
  ('tcl/encoding/cp936.enc',
   '/System/Library/Frameworks/Tcl.framework/Versions/8.5/Resources/Scripts/encoding/cp936.enc',
   'DATA'),
  ('tcl/msgs/tr.msg',
   '/System/Library/Frameworks/Tcl.framework/Versions/8.5/Resources/Scripts/msgs/tr.msg',
   'DATA'),
  ('tcl/encoding/cp861.enc',
   '/System/Library/Frameworks/Tcl.framework/Versions/8.5/Resources/Scripts/encoding/cp861.enc',
   'DATA'),
  ('tk/button.tcl',
   '/System/Library/Frameworks/Tk.framework/Versions/8.5/Resources/Scripts/button.tcl',
   'DATA'),
  ('tk/msgs/sv.msg',
   '/System/Library/Frameworks/Tk.framework/Versions/8.5/Resources/Scripts/msgs/sv.msg',
   'DATA'),
  ('tcl/msgs/es_mx.msg',
   '/System/Library/Frameworks/Tcl.framework/Versions/8.5/Resources/Scripts/msgs/es_mx.msg',
   'DATA'),
  ('tcl/msgs/vi.msg',
   '/System/Library/Frameworks/Tcl.framework/Versions/8.5/Resources/Scripts/msgs/vi.msg',
   'DATA'),
  ('tcl/msgs/sh.msg',
   '/System/Library/Frameworks/Tcl.framework/Versions/8.5/Resources/Scripts/msgs/sh.msg',
   'DATA'),
  ('tcl/msgs/ta.msg',
   '/System/Library/Frameworks/Tcl.framework/Versions/8.5/Resources/Scripts/msgs/ta.msg',
   'DATA'),
  ('tk/msgs/es.msg',
   '/System/Library/Frameworks/Tk.framework/Versions/8.5/Resources/Scripts/msgs/es.msg',
   'DATA'),
  ('tk/scale.tcl',
   '/System/Library/Frameworks/Tk.framework/Versions/8.5/Resources/Scripts/scale.tcl',
   'DATA'),
  ('tcl/msgs/es_ni.msg',
   '/System/Library/Frameworks/Tcl.framework/Versions/8.5/Resources/Scripts/msgs/es_ni.msg',
   'DATA'),
  ('tk/images/logo100.gif',
   '/System/Library/Frameworks/Tk.framework/Versions/8.5/Resources/Scripts/images/logo100.gif',
   'DATA'),
  ('tcl/encoding/macGreek.enc',
   '/System/Library/Frameworks/Tcl.framework/Versions/8.5/Resources/Scripts/encoding/macGreek.enc',
   'DATA'),
  ('tcl/msgs/en_sg.msg',
   '/System/Library/Frameworks/Tcl.framework/Versions/8.5/Resources/Scripts/msgs/en_sg.msg',
   'DATA'),
  ('tcl/encoding/cp1256.enc',
   '/System/Library/Frameworks/Tcl.framework/Versions/8.5/Resources/Scripts/encoding/cp1256.enc',
   'DATA'),
  ('tcl/msgs/es_ve.msg',
   '/System/Library/Frameworks/Tcl.framework/Versions/8.5/Resources/Scripts/msgs/es_ve.msg',
   'DATA'),
  ('tcl/encoding/cp866.enc',
   '/System/Library/Frameworks/Tcl.framework/Versions/8.5/Resources/Scripts/encoding/cp866.enc',
   'DATA'),
  ('tcl/msgs/te.msg',
   '/System/Library/Frameworks/Tcl.framework/Versions/8.5/Resources/Scripts/msgs/te.msg',
   'DATA'),
  ('tcl/msgs/pl.msg',
   '/System/Library/Frameworks/Tcl.framework/Versions/8.5/Resources/Scripts/msgs/pl.msg',
   'DATA'),
  ('tk/ttk/defaults.tcl',
   '/System/Library/Frameworks/Tk.framework/Versions/8.5/Resources/Scripts/ttk/defaults.tcl',
   'DATA'),
  ('tcl/msgs/hr.msg',
   '/System/Library/Frameworks/Tcl.framework/Versions/8.5/Resources/Scripts/msgs/hr.msg',
   'DATA'),
  ('tk/images/pwrdLogo100.gif',
   '/System/Library/Frameworks/Tk.framework/Versions/8.5/Resources/Scripts/images/pwrdLogo100.gif',
   'DATA'),
  ('lib/python3.6/config-3.6m-darwin/Makefile',
   '/usr/local/Cellar/python/3.6.5_1/Frameworks/Python.framework/Versions/3.6/lib/python3.6/config-3.6m-darwin/Makefile',
   'DATA'),
  ('tcl/encoding/cp864.enc',
   '/System/Library/Frameworks/Tcl.framework/Versions/8.5/Resources/Scripts/encoding/cp864.enc',
   'DATA'),
  ('tcl/encoding/macRoman.enc',
   '/System/Library/Frameworks/Tcl.framework/Versions/8.5/Resources/Scripts/encoding/macRoman.enc',
   'DATA'),
  ('tcl/msgs/sv.msg',
   '/System/Library/Frameworks/Tcl.framework/Versions/8.5/Resources/Scripts/msgs/sv.msg',
   'DATA'),
  ('tk/entry.tcl',
   '/System/Library/Frameworks/Tk.framework/Versions/8.5/Resources/Scripts/entry.tcl',
   'DATA'),
  ('tcl/msgs/fi.msg',
   '/System/Library/Frameworks/Tcl.framework/Versions/8.5/Resources/Scripts/msgs/fi.msg',
   'DATA'),
  ('tcl/encoding/koi8-u.enc',
   '/System/Library/Frameworks/Tcl.framework/Versions/8.5/Resources/Scripts/encoding/koi8-u.enc',
   'DATA'),
  ('tcl/msgs/id.msg',
   '/System/Library/Frameworks/Tcl.framework/Versions/8.5/Resources/Scripts/msgs/id.msg',
   'DATA'),
  ('tcl/tclAppInit.c',
   '/System/Library/Frameworks/Tcl.framework/Versions/8.5/Resources/Scripts/tclAppInit.c',
   'DATA'),
  ('tcl/msgs/kok.msg',
   '/System/Library/Frameworks/Tcl.framework/Versions/8.5/Resources/Scripts/msgs/kok.msg',
   'DATA'),
  ('lib2to3/Grammar.txt',
   '/usr/local/Cellar/python/3.6.5_1/Frameworks/Python.framework/Versions/3.6/lib/python3.6/lib2to3/Grammar.txt',
   'DATA'),
  ('tk/msgs/cs.msg',
   '/System/Library/Frameworks/Tk.framework/Versions/8.5/Resources/Scripts/msgs/cs.msg',
   'DATA'),
  ('tcl/msgs/es_ar.msg',
   '/System/Library/Frameworks/Tcl.framework/Versions/8.5/Resources/Scripts/msgs/es_ar.msg',
   'DATA'),
  ('tk/mkpsenc.tcl',
   '/System/Library/Frameworks/Tk.framework/Versions/8.5/Resources/Scripts/mkpsenc.tcl',
   'DATA'),
  ('tk/images/logoLarge.gif',
   '/System/Library/Frameworks/Tk.framework/Versions/8.5/Resources/Scripts/images/logoLarge.gif',
   'DATA'),
  ('tk/ttk/scale.tcl',
   '/System/Library/Frameworks/Tk.framework/Versions/8.5/Resources/Scripts/ttk/scale.tcl',
   'DATA'),
  ('tcl/msgs/en_zw.msg',
   '/System/Library/Frameworks/Tcl.framework/Versions/8.5/Resources/Scripts/msgs/en_zw.msg',
   'DATA'),
  ('tk/ttk/button.tcl',
   '/System/Library/Frameworks/Tk.framework/Versions/8.5/Resources/Scripts/ttk/button.tcl',
   'DATA'),
  ('tcl/encoding/iso8859-6.enc',
   '/System/Library/Frameworks/Tcl.framework/Versions/8.5/Resources/Scripts/encoding/iso8859-6.enc',
   'DATA'),
  ('tcl/encoding/iso8859-10.enc',
   '/System/Library/Frameworks/Tcl.framework/Versions/8.5/Resources/Scripts/encoding/iso8859-10.enc',
   'DATA'),
  ('tcl/msgs/en_in.msg',
   '/System/Library/Frameworks/Tcl.framework/Versions/8.5/Resources/Scripts/msgs/en_in.msg',
   'DATA'),
  ('tcl/msgs/zh_sg.msg',
   '/System/Library/Frameworks/Tcl.framework/Versions/8.5/Resources/Scripts/msgs/zh_sg.msg',
   'DATA'),
  ('tcl/msgs/es_ec.msg',
   '/System/Library/Frameworks/Tcl.framework/Versions/8.5/Resources/Scripts/msgs/es_ec.msg',
   'DATA'),
  ('tcl/encoding/shiftjis.enc',
   '/System/Library/Frameworks/Tcl.framework/Versions/8.5/Resources/Scripts/encoding/shiftjis.enc',
   'DATA'),
  ('tk/ttk/classicTheme.tcl',
   '/System/Library/Frameworks/Tk.framework/Versions/8.5/Resources/Scripts/ttk/classicTheme.tcl',
   'DATA'),
  ('tcl/msgs/es_gt.msg',
   '/System/Library/Frameworks/Tcl.framework/Versions/8.5/Resources/Scripts/msgs/es_gt.msg',
   'DATA'),
  ('tcl/msgs/zh_tw.msg',
   '/System/Library/Frameworks/Tcl.framework/Versions/8.5/Resources/Scripts/msgs/zh_tw.msg',
   'DATA'),
  ('tk/msgs/en.msg',
   '/System/Library/Frameworks/Tk.framework/Versions/8.5/Resources/Scripts/msgs/en.msg',
   'DATA'),
  ('tk/ttk/fonts.tcl',
   '/System/Library/Frameworks/Tk.framework/Versions/8.5/Resources/Scripts/ttk/fonts.tcl',
   'DATA'),
  ('tcl/encoding/cp950.enc',
   '/System/Library/Frameworks/Tcl.framework/Versions/8.5/Resources/Scripts/encoding/cp950.enc',
   'DATA'),
  ('tcl/msgs/fa.msg',
   '/System/Library/Frameworks/Tcl.framework/Versions/8.5/Resources/Scripts/msgs/fa.msg',
   'DATA'),
  ('tcl/msgs/de_be.msg',
   '/System/Library/Frameworks/Tcl.framework/Versions/8.5/Resources/Scripts/msgs/de_be.msg',
   'DATA'),
  ('tk/tearoff.tcl',
   '/System/Library/Frameworks/Tk.framework/Versions/8.5/Resources/Scripts/tearoff.tcl',
   'DATA'),
  ('tk/msgs/ru.msg',
   '/System/Library/Frameworks/Tk.framework/Versions/8.5/Resources/Scripts/msgs/ru.msg',
   'DATA'),
  ('tcl/encoding/gb12345.enc',
   '/System/Library/Frameworks/Tcl.framework/Versions/8.5/Resources/Scripts/encoding/gb12345.enc',
   'DATA'),
  ('tcl/msgs/mr_in.msg',
   '/System/Library/Frameworks/Tcl.framework/Versions/8.5/Resources/Scripts/msgs/mr_in.msg',
   'DATA'),
  ('tcl/msgs/ta_in.msg',
   '/System/Library/Frameworks/Tcl.framework/Versions/8.5/Resources/Scripts/msgs/ta_in.msg',
   'DATA'),
  ('tcl/msgs/ar_lb.msg',
   '/System/Library/Frameworks/Tcl.framework/Versions/8.5/Resources/Scripts/msgs/ar_lb.msg',
   'DATA'),
  ('tk/ttk/ttk.tcl',
   '/System/Library/Frameworks/Tk.framework/Versions/8.5/Resources/Scripts/ttk/ttk.tcl',
   'DATA'),
  ('tk/ttk/vistaTheme.tcl',
   '/System/Library/Frameworks/Tk.framework/Versions/8.5/Resources/Scripts/ttk/vistaTheme.tcl',
   'DATA'),
  ('tcl/safe.tcl',
   '/System/Library/Frameworks/Tcl.framework/Versions/8.5/Resources/Scripts/safe.tcl',
   'DATA'),
  ('tk/ttk/menubutton.tcl',
   '/System/Library/Frameworks/Tk.framework/Versions/8.5/Resources/Scripts/ttk/menubutton.tcl',
   'DATA'),
  ('tcl/encoding/big5.enc',
   '/System/Library/Frameworks/Tcl.framework/Versions/8.5/Resources/Scripts/encoding/big5.enc',
   'DATA'),
  ('tcl/msgs/ar_sy.msg',
   '/System/Library/Frameworks/Tcl.framework/Versions/8.5/Resources/Scripts/msgs/ar_sy.msg',
   'DATA'),
  ('tcl/encoding/cp863.enc',
   '/System/Library/Frameworks/Tcl.framework/Versions/8.5/Resources/Scripts/encoding/cp863.enc',
   'DATA'),
  ('tcl/msgs/bg.msg',
   '/System/Library/Frameworks/Tcl.framework/Versions/8.5/Resources/Scripts/msgs/bg.msg',
   'DATA'),
  ('tcl/msgs/zh_hk.msg',
   '/System/Library/Frameworks/Tcl.framework/Versions/8.5/Resources/Scripts/msgs/zh_hk.msg',
   'DATA'),
  ('tcl/encoding/cp860.enc',
   '/System/Library/Frameworks/Tcl.framework/Versions/8.5/Resources/Scripts/encoding/cp860.enc',
   'DATA'),
  ('tcl/msgs/fa_ir.msg',
   '/System/Library/Frameworks/Tcl.framework/Versions/8.5/Resources/Scripts/msgs/fa_ir.msg',
   'DATA'),
  ('tcl/clock.tcl',
   '/System/Library/Frameworks/Tcl.framework/Versions/8.5/Resources/Scripts/clock.tcl',
   'DATA'),
  ('tcl/encoding/jis0212.enc',
   '/System/Library/Frameworks/Tcl.framework/Versions/8.5/Resources/Scripts/encoding/jis0212.enc',
   'DATA'),
  ('tcl/encoding/dingbats.enc',
   '/System/Library/Frameworks/Tcl.framework/Versions/8.5/Resources/Scripts/encoding/dingbats.enc',
   'DATA'),
  ('tcl/msgs/gl_es.msg',
   '/System/Library/Frameworks/Tcl.framework/Versions/8.5/Resources/Scripts/msgs/gl_es.msg',
   'DATA'),
  ('tcl/msgs/ga.msg',
   '/System/Library/Frameworks/Tcl.framework/Versions/8.5/Resources/Scripts/msgs/ga.msg',
   'DATA'),
  ('tk/comdlg.tcl',
   '/System/Library/Frameworks/Tk.framework/Versions/8.5/Resources/Scripts/comdlg.tcl',
   'DATA'),
  ('tk/ttk/clamTheme.tcl',
   '/System/Library/Frameworks/Tk.framework/Versions/8.5/Resources/Scripts/ttk/clamTheme.tcl',
   'DATA'),
  ('tcl/msgs/et.msg',
   '/System/Library/Frameworks/Tcl.framework/Versions/8.5/Resources/Scripts/msgs/et.msg',
   'DATA'),
  ('tk/ttk/notebook.tcl',
   '/System/Library/Frameworks/Tk.framework/Versions/8.5/Resources/Scripts/ttk/notebook.tcl',
   'DATA')],)
