('/Users/thao/PycharmProjects/PeopleDetection/build/WebcamTracking/WebcamTracking',
 False,
 False,
 True,
 None,
 None,
 False,
 False,
 None,
 True,
 'WebcamTracking.pkg',
 [('out00-PYZ.pyz',
   '/Users/thao/PycharmProjects/PeopleDetection/build/WebcamTracking/out00-PYZ.pyz',
   'PYZ'),
  ('_struct',
   '/usr/local/Cellar/python@2/2.7.15_1/Frameworks/Python.framework/Versions/2.7/lib/python2.7/lib-dynload/_struct.so',
   'EXTENSION'),
  ('zlib',
   '/usr/local/Cellar/python@2/2.7.15_1/Frameworks/Python.framework/Versions/2.7/lib/python2.7/lib-dynload/zlib.so',
   'EXTENSION'),
  ('struct',
   '/usr/local/Cellar/python@2/2.7.15_1/Frameworks/Python.framework/Versions/2.7/lib/python2.7/struct.pyc',
   'PYMODULE'),
  ('pyimod01_os_path',
   '/usr/local/lib/python2.7/site-packages/PyInstaller/loader/pyimod01_os_path.pyc',
   'PYMODULE'),
  ('pyimod02_archive',
   '/usr/local/lib/python2.7/site-packages/PyInstaller/loader/pyimod02_archive.pyc',
   'PYMODULE'),
  ('pyimod03_importers',
   '/usr/local/lib/python2.7/site-packages/PyInstaller/loader/pyimod03_importers.pyc',
   'PYMODULE'),
  ('pyiboot01_bootstrap',
   '/usr/local/lib/python2.7/site-packages/PyInstaller/loader/pyiboot01_bootstrap.py',
   'PYSOURCE'),
  ('pyi_rth_multiprocessing',
   '/usr/local/lib/python2.7/site-packages/PyInstaller/loader/rthooks/pyi_rth_multiprocessing.py',
   'PYSOURCE'),
  ('pyi_rth__tkinter',
   '/usr/local/lib/python2.7/site-packages/PyInstaller/loader/rthooks/pyi_rth__tkinter.py',
   'PYSOURCE'),
  ('pyi_rth_pkgres',
   '/usr/local/lib/python2.7/site-packages/PyInstaller/loader/rthooks/pyi_rth_pkgres.py',
   'PYSOURCE'),
  ('WebcamTracking',
   '/Users/thao/PycharmProjects/PeopleDetection/WebcamTracking.py',
   'PYSOURCE')],
 [],
 False,
 False,
 1543971316,
 [('runw',
   '/usr/local/lib/python2.7/site-packages/PyInstaller/bootloader/Darwin-64bit/runw',
   'EXECUTABLE')])
