([('tensorflow-human-detection',
   '/Users/thao/PycharmProjects/PeopleDetection/build/tensorflow-human-detection/tensorflow-human-detection',
   'EXECUTABLE'),
  ('_struct.so',
   '/usr/local/Cellar/python@2/2.7.15_1/Frameworks/Python.framework/Versions/2.7/lib/python2.7/lib-dynload/_struct.so',
   'EXTENSION'),
  ('zlib.so',
   '/usr/local/Cellar/python@2/2.7.15_1/Frameworks/Python.framework/Versions/2.7/lib/python2.7/lib-dynload/zlib.so',
   'EXTENSION'),
  ('Python',
   '/usr/local/Cellar/python@2/2.7.15_1/Frameworks/Python.framework/Versions/2.7/Python',
   'BINARY'),
  ('_rational_tests.so',
   '/usr/local/lib/python2.7/site-packages/numpy/core/_rational_tests.so',
   'BINARY'),
  ('_operand_flag_tests.so',
   '/usr/local/lib/python2.7/site-packages/numpy/core/_operand_flag_tests.so',
   'BINARY'),
  ('_multiarray_tests.so',
   '/usr/local/lib/python2.7/site-packages/numpy/core/_multiarray_tests.so',
   'BINARY'),
  ('_umath_tests.so',
   '/usr/local/lib/python2.7/site-packages/numpy/core/_umath_tests.so',
   'BINARY'),
  ('_struct_ufunc_tests.so',
   '/usr/local/lib/python2.7/site-packages/numpy/core/_struct_ufunc_tests.so',
   'BINARY'),
  ('_dummy.so',
   '/usr/local/lib/python2.7/site-packages/numpy/core/_dummy.so',
   'BINARY'),
  ('umath.so',
   '/usr/local/lib/python2.7/site-packages/numpy/core/umath.so',
   'BINARY'),
  ('multiarray.so',
   '/usr/local/lib/python2.7/site-packages/numpy/core/multiarray.so',
   'BINARY'),
  ('_struct',
   '/usr/local/Cellar/python@2/2.7.15_1/Frameworks/Python.framework/Versions/2.7/lib/python2.7/lib-dynload/_struct.so',
   'EXTENSION'),
  ('binascii',
   '/usr/local/Cellar/python@2/2.7.15_1/Frameworks/Python.framework/Versions/2.7/lib/python2.7/lib-dynload/binascii.so',
   'EXTENSION'),
  ('cStringIO',
   '/usr/local/Cellar/python@2/2.7.15_1/Frameworks/Python.framework/Versions/2.7/lib/python2.7/lib-dynload/cStringIO.so',
   'EXTENSION'),
  ('_hashlib',
   '/usr/local/Cellar/python@2/2.7.15_1/Frameworks/Python.framework/Versions/2.7/lib/python2.7/lib-dynload/_hashlib.so',
   'EXTENSION'),
  ('_random',
   '/usr/local/Cellar/python@2/2.7.15_1/Frameworks/Python.framework/Versions/2.7/lib/python2.7/lib-dynload/_random.so',
   'EXTENSION'),
  ('math',
   '/usr/local/Cellar/python@2/2.7.15_1/Frameworks/Python.framework/Versions/2.7/lib/python2.7/lib-dynload/math.so',
   'EXTENSION'),
  ('_heapq',
   '/usr/local/Cellar/python@2/2.7.15_1/Frameworks/Python.framework/Versions/2.7/lib/python2.7/lib-dynload/_heapq.so',
   'EXTENSION'),
  ('_locale',
   '/usr/local/Cellar/python@2/2.7.15_1/Frameworks/Python.framework/Versions/2.7/lib/python2.7/lib-dynload/_locale.so',
   'EXTENSION'),
  ('fcntl',
   '/usr/local/Cellar/python@2/2.7.15_1/Frameworks/Python.framework/Versions/2.7/lib/python2.7/lib-dynload/fcntl.so',
   'EXTENSION'),
  ('select',
   '/usr/local/Cellar/python@2/2.7.15_1/Frameworks/Python.framework/Versions/2.7/lib/python2.7/lib-dynload/select.so',
   'EXTENSION'),
  ('_ctypes',
   '/usr/local/Cellar/python@2/2.7.15_1/Frameworks/Python.framework/Versions/2.7/lib/python2.7/lib-dynload/_ctypes.so',
   'EXTENSION'),
  ('_ssl',
   '/usr/local/Cellar/python@2/2.7.15_1/Frameworks/Python.framework/Versions/2.7/lib/python2.7/lib-dynload/_ssl.so',
   'EXTENSION'),
  ('_socket',
   '/usr/local/Cellar/python@2/2.7.15_1/Frameworks/Python.framework/Versions/2.7/lib/python2.7/lib-dynload/_socket.so',
   'EXTENSION'),
  ('readline',
   '/usr/local/Cellar/python@2/2.7.15_1/Frameworks/Python.framework/Versions/2.7/lib/python2.7/lib-dynload/readline.so',
   'EXTENSION'),
  ('datetime',
   '/usr/local/Cellar/python@2/2.7.15_1/Frameworks/Python.framework/Versions/2.7/lib/python2.7/lib-dynload/datetime.so',
   'EXTENSION'),
  ('strop',
   '/usr/local/Cellar/python@2/2.7.15_1/Frameworks/Python.framework/Versions/2.7/lib/python2.7/lib-dynload/strop.so',
   'EXTENSION'),
  ('array',
   '/usr/local/Cellar/python@2/2.7.15_1/Frameworks/Python.framework/Versions/2.7/lib/python2.7/lib-dynload/array.so',
   'EXTENSION'),
  ('bz2',
   '/usr/local/Cellar/python@2/2.7.15_1/Frameworks/Python.framework/Versions/2.7/lib/python2.7/lib-dynload/bz2.so',
   'EXTENSION'),
  ('zlib',
   '/usr/local/Cellar/python@2/2.7.15_1/Frameworks/Python.framework/Versions/2.7/lib/python2.7/lib-dynload/zlib.so',
   'EXTENSION'),
  ('grp',
   '/usr/local/Cellar/python@2/2.7.15_1/Frameworks/Python.framework/Versions/2.7/lib/python2.7/lib-dynload/grp.so',
   'EXTENSION'),
  ('itertools',
   '/usr/local/Cellar/python@2/2.7.15_1/Frameworks/Python.framework/Versions/2.7/lib/python2.7/lib-dynload/itertools.so',
   'EXTENSION'),
  ('_scproxy',
   '/usr/local/Cellar/python@2/2.7.15_1/Frameworks/Python.framework/Versions/2.7/lib/python2.7/lib-dynload/_scproxy.so',
   'EXTENSION'),
  ('_Res',
   '/usr/local/Cellar/python@2/2.7.15_1/Frameworks/Python.framework/Versions/2.7/lib/python2.7/lib-dynload/_Res.so',
   'EXTENSION'),
  ('_File',
   '/usr/local/Cellar/python@2/2.7.15_1/Frameworks/Python.framework/Versions/2.7/lib/python2.7/lib-dynload/_File.so',
   'EXTENSION'),
  ('MacOS',
   '/usr/local/Cellar/python@2/2.7.15_1/Frameworks/Python.framework/Versions/2.7/lib/python2.7/lib-dynload/MacOS.so',
   'EXTENSION'),
  ('Nav',
   '/usr/local/Cellar/python@2/2.7.15_1/Frameworks/Python.framework/Versions/2.7/lib/python2.7/lib-dynload/Nav.so',
   'EXTENSION'),
  ('_AE',
   '/usr/local/Cellar/python@2/2.7.15_1/Frameworks/Python.framework/Versions/2.7/lib/python2.7/lib-dynload/_AE.so',
   'EXTENSION'),
  ('_Menu',
   '/usr/local/Cellar/python@2/2.7.15_1/Frameworks/Python.framework/Versions/2.7/lib/python2.7/lib-dynload/_Menu.so',
   'EXTENSION'),
  ('_Ctl',
   '/usr/local/Cellar/python@2/2.7.15_1/Frameworks/Python.framework/Versions/2.7/lib/python2.7/lib-dynload/_Ctl.so',
   'EXTENSION'),
  ('_Evt',
   '/usr/local/Cellar/python@2/2.7.15_1/Frameworks/Python.framework/Versions/2.7/lib/python2.7/lib-dynload/_Evt.so',
   'EXTENSION'),
  ('_Win',
   '/usr/local/Cellar/python@2/2.7.15_1/Frameworks/Python.framework/Versions/2.7/lib/python2.7/lib-dynload/_Win.so',
   'EXTENSION'),
  ('_Qd',
   '/usr/local/Cellar/python@2/2.7.15_1/Frameworks/Python.framework/Versions/2.7/lib/python2.7/lib-dynload/_Qd.so',
   'EXTENSION'),
  ('_Dlg',
   '/usr/local/Cellar/python@2/2.7.15_1/Frameworks/Python.framework/Versions/2.7/lib/python2.7/lib-dynload/_Dlg.so',
   'EXTENSION'),
  ('termios',
   '/usr/local/Cellar/python@2/2.7.15_1/Frameworks/Python.framework/Versions/2.7/lib/python2.7/lib-dynload/termios.so',
   'EXTENSION'),
  ('pyexpat',
   '/usr/local/Cellar/python@2/2.7.15_1/Frameworks/Python.framework/Versions/2.7/lib/python2.7/lib-dynload/pyexpat.so',
   'EXTENSION'),
  ('cPickle',
   '/usr/local/Cellar/python@2/2.7.15_1/Frameworks/Python.framework/Versions/2.7/lib/python2.7/lib-dynload/cPickle.so',
   'EXTENSION'),
  ('_collections',
   '/usr/local/Cellar/python@2/2.7.15_1/Frameworks/Python.framework/Versions/2.7/lib/python2.7/lib-dynload/_collections.so',
   'EXTENSION'),
  ('gestalt',
   '/usr/local/Cellar/python@2/2.7.15_1/Frameworks/Python.framework/Versions/2.7/lib/python2.7/lib-dynload/gestalt.so',
   'EXTENSION'),
  ('operator',
   '/usr/local/Cellar/python@2/2.7.15_1/Frameworks/Python.framework/Versions/2.7/lib/python2.7/lib-dynload/operator.so',
   'EXTENSION'),
  ('_functools',
   '/usr/local/Cellar/python@2/2.7.15_1/Frameworks/Python.framework/Versions/2.7/lib/python2.7/lib-dynload/_functools.so',
   'EXTENSION'),
  ('_io',
   '/usr/local/Cellar/python@2/2.7.15_1/Frameworks/Python.framework/Versions/2.7/lib/python2.7/lib-dynload/_io.so',
   'EXTENSION'),
  ('resource',
   '/usr/local/Cellar/python@2/2.7.15_1/Frameworks/Python.framework/Versions/2.7/lib/python2.7/lib-dynload/resource.so',
   'EXTENSION'),
  ('_multiprocessing',
   '/usr/local/Cellar/python@2/2.7.15_1/Frameworks/Python.framework/Versions/2.7/lib/python2.7/lib-dynload/_multiprocessing.so',
   'EXTENSION'),
  ('mmap',
   '/usr/local/Cellar/python@2/2.7.15_1/Frameworks/Python.framework/Versions/2.7/lib/python2.7/lib-dynload/mmap.so',
   'EXTENSION'),
  ('_bisect',
   '/usr/local/Cellar/python@2/2.7.15_1/Frameworks/Python.framework/Versions/2.7/lib/python2.7/lib-dynload/_bisect.so',
   'EXTENSION'),
  ('unicodedata',
   '/usr/local/Cellar/python@2/2.7.15_1/Frameworks/Python.framework/Versions/2.7/lib/python2.7/lib-dynload/unicodedata.so',
   'EXTENSION'),
  ('_multibytecodec',
   '/usr/local/Cellar/python@2/2.7.15_1/Frameworks/Python.framework/Versions/2.7/lib/python2.7/lib-dynload/_multibytecodec.so',
   'EXTENSION'),
  ('_codecs_cn',
   '/usr/local/Cellar/python@2/2.7.15_1/Frameworks/Python.framework/Versions/2.7/lib/python2.7/lib-dynload/_codecs_cn.so',
   'EXTENSION'),
  ('_codecs_jp',
   '/usr/local/Cellar/python@2/2.7.15_1/Frameworks/Python.framework/Versions/2.7/lib/python2.7/lib-dynload/_codecs_jp.so',
   'EXTENSION'),
  ('_codecs_hk',
   '/usr/local/Cellar/python@2/2.7.15_1/Frameworks/Python.framework/Versions/2.7/lib/python2.7/lib-dynload/_codecs_hk.so',
   'EXTENSION'),
  ('_codecs_tw',
   '/usr/local/Cellar/python@2/2.7.15_1/Frameworks/Python.framework/Versions/2.7/lib/python2.7/lib-dynload/_codecs_tw.so',
   'EXTENSION'),
  ('_codecs_iso2022',
   '/usr/local/Cellar/python@2/2.7.15_1/Frameworks/Python.framework/Versions/2.7/lib/python2.7/lib-dynload/_codecs_iso2022.so',
   'EXTENSION'),
  ('_codecs_kr',
   '/usr/local/Cellar/python@2/2.7.15_1/Frameworks/Python.framework/Versions/2.7/lib/python2.7/lib-dynload/_codecs_kr.so',
   'EXTENSION'),
  ('time',
   '/usr/local/Cellar/python@2/2.7.15_1/Frameworks/Python.framework/Versions/2.7/lib/python2.7/lib-dynload/time.so',
   'EXTENSION'),
  ('cv2.cv2',
   '/usr/local/lib/python2.7/site-packages/cv2/cv2.so',
   'EXTENSION'),
  ('google.protobuf.pyext._message',
   '/usr/local/lib/python2.7/site-packages/google/protobuf/pyext/_message.so',
   'EXTENSION'),
  ('google.protobuf.internal._api_implementation',
   '/usr/local/lib/python2.7/site-packages/google/protobuf/internal/_api_implementation.so',
   'EXTENSION'),
  ('_json',
   '/usr/local/Cellar/python@2/2.7.15_1/Frameworks/Python.framework/Versions/2.7/lib/python2.7/lib-dynload/_json.so',
   'EXTENSION'),
  ('h5py.h5ac',
   '/usr/local/lib/python2.7/site-packages/h5py/h5ac.so',
   'EXTENSION'),
  ('h5py.defs',
   '/usr/local/lib/python2.7/site-packages/h5py/defs.so',
   'EXTENSION'),
  ('h5py.utils',
   '/usr/local/lib/python2.7/site-packages/h5py/utils.so',
   'EXTENSION'),
  ('h5py._proxy',
   '/usr/local/lib/python2.7/site-packages/h5py/_proxy.so',
   'EXTENSION'),
  ('h5py._objects',
   '/usr/local/lib/python2.7/site-packages/h5py/_objects.so',
   'EXTENSION'),
  ('h5py.h5',
   '/usr/local/lib/python2.7/site-packages/h5py/h5.so',
   'EXTENSION'),
  ('h5py.h5l',
   '/usr/local/lib/python2.7/site-packages/h5py/h5l.so',
   'EXTENSION'),
  ('h5py.h5o',
   '/usr/local/lib/python2.7/site-packages/h5py/h5o.so',
   'EXTENSION'),
  ('h5py.h5i',
   '/usr/local/lib/python2.7/site-packages/h5py/h5i.so',
   'EXTENSION'),
  ('h5py.h5p',
   '/usr/local/lib/python2.7/site-packages/h5py/h5p.so',
   'EXTENSION'),
  ('h5py.h5t',
   '/usr/local/lib/python2.7/site-packages/h5py/h5t.so',
   'EXTENSION'),
  ('h5py.h5s',
   '/usr/local/lib/python2.7/site-packages/h5py/h5s.so',
   'EXTENSION'),
  ('h5py.h5r',
   '/usr/local/lib/python2.7/site-packages/h5py/h5r.so',
   'EXTENSION'),
  ('h5py.h5g',
   '/usr/local/lib/python2.7/site-packages/h5py/h5g.so',
   'EXTENSION'),
  ('h5py.h5fd',
   '/usr/local/lib/python2.7/site-packages/h5py/h5fd.so',
   'EXTENSION'),
  ('h5py.h5f',
   '/usr/local/lib/python2.7/site-packages/h5py/h5f.so',
   'EXTENSION'),
  ('h5py.h5ds',
   '/usr/local/lib/python2.7/site-packages/h5py/h5ds.so',
   'EXTENSION'),
  ('h5py.h5d',
   '/usr/local/lib/python2.7/site-packages/h5py/h5d.so',
   'EXTENSION'),
  ('h5py.h5a',
   '/usr/local/lib/python2.7/site-packages/h5py/h5a.so',
   'EXTENSION'),
  ('h5py.h5z',
   '/usr/local/lib/python2.7/site-packages/h5py/h5z.so',
   'EXTENSION'),
  ('h5py._conv',
   '/usr/local/lib/python2.7/site-packages/h5py/_conv.so',
   'EXTENSION'),
  ('h5py._errors',
   '/usr/local/lib/python2.7/site-packages/h5py/_errors.so',
   'EXTENSION'),
  ('gdbm',
   '/usr/local/Cellar/python@2/2.7.15_1/Frameworks/Python.framework/Versions/2.7/lib/python2.7/lib-dynload/gdbm.so',
   'EXTENSION'),
  ('dbm',
   '/usr/local/Cellar/python@2/2.7.15_1/Frameworks/Python.framework/Versions/2.7/lib/python2.7/lib-dynload/dbm.so',
   'EXTENSION'),
  ('_testcapi',
   '/usr/local/Cellar/python@2/2.7.15_1/Frameworks/Python.framework/Versions/2.7/lib/python2.7/lib-dynload/_testcapi.so',
   'EXTENSION'),
  ('_tkinter',
   '/usr/local/Cellar/python@2/2.7.15_1/Frameworks/Python.framework/Versions/2.7/lib/python2.7/lib-dynload/_tkinter.so',
   'EXTENSION'),
  ('future_builtins',
   '/usr/local/Cellar/python@2/2.7.15_1/Frameworks/Python.framework/Versions/2.7/lib/python2.7/lib-dynload/future_builtins.so',
   'EXTENSION'),
  ('_csv',
   '/usr/local/Cellar/python@2/2.7.15_1/Frameworks/Python.framework/Versions/2.7/lib/python2.7/lib-dynload/_csv.so',
   'EXTENSION'),
  ('tensorflow.python._pywrap_tensorflow_internal',
   '/usr/local/lib/python2.7/site-packages/tensorflow/python/_pywrap_tensorflow_internal.so',
   'EXTENSION'),
  ('tensorflow.python.framework.fast_tensor_util',
   '/usr/local/lib/python2.7/site-packages/tensorflow/python/framework/fast_tensor_util.so',
   'EXTENSION'),
  ('syslog',
   '/usr/local/Cellar/python@2/2.7.15_1/Frameworks/Python.framework/Versions/2.7/lib/python2.7/lib-dynload/syslog.so',
   'EXTENSION'),
  ('numpy.core._multiarray_tests',
   '/usr/local/lib/python2.7/site-packages/numpy/core/_multiarray_tests.so',
   'EXTENSION'),
  ('numpy.core.multiarray',
   '/usr/local/lib/python2.7/site-packages/numpy/core/multiarray.so',
   'EXTENSION'),
  ('numpy.core.umath',
   '/usr/local/lib/python2.7/site-packages/numpy/core/umath.so',
   'EXTENSION'),
  ('_curses',
   '/usr/local/Cellar/python@2/2.7.15_1/Frameworks/Python.framework/Versions/2.7/lib/python2.7/lib-dynload/_curses.so',
   'EXTENSION'),
  ('numpy.random.mtrand',
   '/usr/local/lib/python2.7/site-packages/numpy/random/mtrand.so',
   'EXTENSION'),
  ('numpy.fft.fftpack_lite',
   '/usr/local/lib/python2.7/site-packages/numpy/fft/fftpack_lite.so',
   'EXTENSION'),
  ('numpy.linalg._umath_linalg',
   '/usr/local/lib/python2.7/site-packages/numpy/linalg/_umath_linalg.so',
   'EXTENSION'),
  ('numpy.linalg.lapack_lite',
   '/usr/local/lib/python2.7/site-packages/numpy/linalg/lapack_lite.so',
   'EXTENSION'),
  ('libopenblasp-r0.3.0.dev.dylib',
   '/usr/local/lib/python2.7/site-packages/numpy/core/../.dylibs/libopenblasp-r0.3.0.dev.dylib',
   'BINARY'),
  ('libcrypto.1.0.0.dylib',
   '/usr/local/opt/openssl/lib/libcrypto.1.0.0.dylib',
   'BINARY'),
  ('libssl.1.0.0.dylib',
   '/usr/local/opt/openssl/lib/libssl.1.0.0.dylib',
   'BINARY'),
  ('libreadline.7.dylib',
   '/usr/local/opt/readline/lib/libreadline.7.dylib',
   'BINARY'),
  ('QtCore',
   '/usr/local/lib/python2.7/site-packages/cv2/.dylibs/QtCore',
   'BINARY'),
  ('libavresample.4.0.0.dylib',
   '/usr/local/lib/python2.7/site-packages/cv2/.dylibs/libavresample.4.0.0.dylib',
   'BINARY'),
  ('libavutil.56.22.100.dylib',
   '/usr/local/lib/python2.7/site-packages/cv2/.dylibs/libavutil.56.22.100.dylib',
   'BINARY'),
  ('libswscale.5.3.100.dylib',
   '/usr/local/lib/python2.7/site-packages/cv2/.dylibs/libswscale.5.3.100.dylib',
   'BINARY'),
  ('QtTest',
   '/usr/local/lib/python2.7/site-packages/cv2/.dylibs/QtTest',
   'BINARY'),
  ('QtGui',
   '/usr/local/lib/python2.7/site-packages/cv2/.dylibs/QtGui',
   'BINARY'),
  ('libavcodec.58.35.100.dylib',
   '/usr/local/lib/python2.7/site-packages/cv2/.dylibs/libavcodec.58.35.100.dylib',
   'BINARY'),
  ('libavformat.58.20.100.dylib',
   '/usr/local/lib/python2.7/site-packages/cv2/.dylibs/libavformat.58.20.100.dylib',
   'BINARY'),
  ('libhdf5.101.dylib',
   '/usr/local/lib/python2.7/site-packages/h5py/.dylibs/libhdf5.101.dylib',
   'BINARY'),
  ('libhdf5_hl.100.dylib',
   '/usr/local/lib/python2.7/site-packages/h5py/.dylibs/libhdf5_hl.100.dylib',
   'BINARY'),
  ('libgdbm.6.dylib', '/usr/local/opt/gdbm/lib/libgdbm.6.dylib', 'BINARY'),
  (u'libtensorflow_framework.so',
   u'/usr/local/lib/python2.7/site-packages/tensorflow/libtensorflow_framework.so',
   'BINARY'),
  ('libquadmath.0.dylib',
   '/usr/local/lib/python2.7/site-packages/numpy/.dylibs/libquadmath.0.dylib',
   'BINARY'),
  ('libgcc_s.1.dylib',
   '/usr/local/lib/python2.7/site-packages/numpy/.dylibs/libgcc_s.1.dylib',
   'BINARY'),
  ('libgfortran.3.dylib',
   '/usr/local/lib/python2.7/site-packages/numpy/.dylibs/libgfortran.3.dylib',
   'BINARY'),
  ('libsnappy.1.1.7.dylib',
   '/usr/local/lib/python2.7/site-packages/cv2/.dylibs/libsnappy.1.1.7.dylib',
   'BINARY'),
  ('libvorbisenc.2.dylib',
   '/usr/local/lib/python2.7/site-packages/cv2/.dylibs/libvorbisenc.2.dylib',
   'BINARY'),
  ('libtheoraenc.1.dylib',
   '/usr/local/lib/python2.7/site-packages/cv2/.dylibs/libtheoraenc.1.dylib',
   'BINARY'),
  ('libtheoradec.1.dylib',
   '/usr/local/lib/python2.7/site-packages/cv2/.dylibs/libtheoradec.1.dylib',
   'BINARY'),
  ('liblzma.5.dylib',
   '/usr/local/lib/python2.7/site-packages/cv2/.dylibs/liblzma.5.dylib',
   'BINARY'),
  ('libmp3lame.0.dylib',
   '/usr/local/lib/python2.7/site-packages/cv2/.dylibs/libmp3lame.0.dylib',
   'BINARY'),
  ('libswresample.3.3.100.dylib',
   '/usr/local/lib/python2.7/site-packages/cv2/.dylibs/libswresample.3.3.100.dylib',
   'BINARY'),
  ('libvorbis.0.dylib',
   '/usr/local/lib/python2.7/site-packages/cv2/.dylibs/libvorbis.0.dylib',
   'BINARY'),
  ('libopus.0.dylib',
   '/usr/local/lib/python2.7/site-packages/cv2/.dylibs/libopus.0.dylib',
   'BINARY'),
  ('libogg.0.dylib',
   '/usr/local/lib/python2.7/site-packages/cv2/.dylibs/libogg.0.dylib',
   'BINARY'),
  ('libaec.0.dylib',
   '/usr/local/lib/python2.7/site-packages/h5py/.dylibs/libaec.0.dylib',
   'BINARY'),
  ('libsz.2.dylib',
   '/usr/local/lib/python2.7/site-packages/h5py/.dylibs/libsz.2.dylib',
   'BINARY'),
  ('tcl/msgs/hi.msg',
   '/System/Library/Frameworks/Tcl.framework/Versions/8.5/Resources/Scripts/msgs/hi.msg',
   'DATA'),
  ('tcl/msgs/es_bo.msg',
   '/System/Library/Frameworks/Tcl.framework/Versions/8.5/Resources/Scripts/msgs/es_bo.msg',
   'DATA'),
  ('tcl/package.tcl',
   '/System/Library/Frameworks/Tcl.framework/Versions/8.5/Resources/Scripts/package.tcl',
   'DATA'),
  ('tcl/msgs/nl.msg',
   '/System/Library/Frameworks/Tcl.framework/Versions/8.5/Resources/Scripts/msgs/nl.msg',
   'DATA'),
  ('tcl/msgs/en_bw.msg',
   '/System/Library/Frameworks/Tcl.framework/Versions/8.5/Resources/Scripts/msgs/en_bw.msg',
   'DATA'),
  ('tcl/encoding/cp737.enc',
   '/System/Library/Frameworks/Tcl.framework/Versions/8.5/Resources/Scripts/encoding/cp737.enc',
   'DATA'),
  ('tcl/msgs/gl_es.msg',
   '/System/Library/Frameworks/Tcl.framework/Versions/8.5/Resources/Scripts/msgs/gl_es.msg',
   'DATA'),
  ('tcl/encoding/cp437.enc',
   '/System/Library/Frameworks/Tcl.framework/Versions/8.5/Resources/Scripts/encoding/cp437.enc',
   'DATA'),
  ('tk/images/pwrdLogo75.gif',
   '/System/Library/Frameworks/Tk.framework/Versions/8.5/Resources/Scripts/images/pwrdLogo75.gif',
   'DATA'),
  ('tcl/msgs/fo.msg',
   '/System/Library/Frameworks/Tcl.framework/Versions/8.5/Resources/Scripts/msgs/fo.msg',
   'DATA'),
  ('tcl/encoding/cp852.enc',
   '/System/Library/Frameworks/Tcl.framework/Versions/8.5/Resources/Scripts/encoding/cp852.enc',
   'DATA'),
  ('tcl/msgs/es_py.msg',
   '/System/Library/Frameworks/Tcl.framework/Versions/8.5/Resources/Scripts/msgs/es_py.msg',
   'DATA'),
  ('tcl/msgs/gv_gb.msg',
   '/System/Library/Frameworks/Tcl.framework/Versions/8.5/Resources/Scripts/msgs/gv_gb.msg',
   'DATA'),
  ('tk/msgs/ru.msg',
   '/System/Library/Frameworks/Tk.framework/Versions/8.5/Resources/Scripts/msgs/ru.msg',
   'DATA'),
  ('tcl/msgs/fa_in.msg',
   '/System/Library/Frameworks/Tcl.framework/Versions/8.5/Resources/Scripts/msgs/fa_in.msg',
   'DATA'),
  ('tcl/msgs/ar.msg',
   '/System/Library/Frameworks/Tcl.framework/Versions/8.5/Resources/Scripts/msgs/ar.msg',
   'DATA'),
  ('tcl/msgs/te.msg',
   '/System/Library/Frameworks/Tcl.framework/Versions/8.5/Resources/Scripts/msgs/te.msg',
   'DATA'),
  ('tcl/msgs/ga.msg',
   '/System/Library/Frameworks/Tcl.framework/Versions/8.5/Resources/Scripts/msgs/ga.msg',
   'DATA'),
  ('tk/safetk.tcl',
   '/System/Library/Frameworks/Tk.framework/Versions/8.5/Resources/Scripts/safetk.tcl',
   'DATA'),
  ('tcl/msgs/en_ph.msg',
   '/System/Library/Frameworks/Tcl.framework/Versions/8.5/Resources/Scripts/msgs/en_ph.msg',
   'DATA'),
  ('tcl/encoding/iso2022.enc',
   '/System/Library/Frameworks/Tcl.framework/Versions/8.5/Resources/Scripts/encoding/iso2022.enc',
   'DATA'),
  ('tcl/msgs/bg.msg',
   '/System/Library/Frameworks/Tcl.framework/Versions/8.5/Resources/Scripts/msgs/bg.msg',
   'DATA'),
  ('tk/msgs/fr.msg',
   '/System/Library/Frameworks/Tk.framework/Versions/8.5/Resources/Scripts/msgs/fr.msg',
   'DATA'),
  ('tcl/msgs/es_pe.msg',
   '/System/Library/Frameworks/Tcl.framework/Versions/8.5/Resources/Scripts/msgs/es_pe.msg',
   'DATA'),
  ('tcl/msgs/es_pr.msg',
   '/System/Library/Frameworks/Tcl.framework/Versions/8.5/Resources/Scripts/msgs/es_pr.msg',
   'DATA'),
  ('tcl/msgs/sv.msg',
   '/System/Library/Frameworks/Tcl.framework/Versions/8.5/Resources/Scripts/msgs/sv.msg',
   'DATA'),
  ('tcl/msgs/es_uy.msg',
   '/System/Library/Frameworks/Tcl.framework/Versions/8.5/Resources/Scripts/msgs/es_uy.msg',
   'DATA'),
  ('tcl/msgs/fr_ch.msg',
   '/System/Library/Frameworks/Tcl.framework/Versions/8.5/Resources/Scripts/msgs/fr_ch.msg',
   'DATA'),
  ('tcl/encoding/shiftjis.enc',
   '/System/Library/Frameworks/Tcl.framework/Versions/8.5/Resources/Scripts/encoding/shiftjis.enc',
   'DATA'),
  ('tcl/msgs/pl.msg',
   '/System/Library/Frameworks/Tcl.framework/Versions/8.5/Resources/Scripts/msgs/pl.msg',
   'DATA'),
  ('tcl/encoding/cp1251.enc',
   '/System/Library/Frameworks/Tcl.framework/Versions/8.5/Resources/Scripts/encoding/cp1251.enc',
   'DATA'),
  ('tcl/msgs/kw.msg',
   '/System/Library/Frameworks/Tcl.framework/Versions/8.5/Resources/Scripts/msgs/kw.msg',
   'DATA'),
  ('tcl/encoding/iso8859-14.enc',
   '/System/Library/Frameworks/Tcl.framework/Versions/8.5/Resources/Scripts/encoding/iso8859-14.enc',
   'DATA'),
  ('tcl/msgs/en_zw.msg',
   '/System/Library/Frameworks/Tcl.framework/Versions/8.5/Resources/Scripts/msgs/en_zw.msg',
   'DATA'),
  ('tcl/msgs/es_pa.msg',
   '/System/Library/Frameworks/Tcl.framework/Versions/8.5/Resources/Scripts/msgs/es_pa.msg',
   'DATA'),
  ('tcl/encoding/macDingbats.enc',
   '/System/Library/Frameworks/Tcl.framework/Versions/8.5/Resources/Scripts/encoding/macDingbats.enc',
   'DATA'),
  ('tcl/auto.tcl',
   '/System/Library/Frameworks/Tcl.framework/Versions/8.5/Resources/Scripts/auto.tcl',
   'DATA'),
  ('tcl/encoding/macRoman.enc',
   '/System/Library/Frameworks/Tcl.framework/Versions/8.5/Resources/Scripts/encoding/macRoman.enc',
   'DATA'),
  ('tcl/safe.tcl',
   '/System/Library/Frameworks/Tcl.framework/Versions/8.5/Resources/Scripts/safe.tcl',
   'DATA'),
  ('tcl/msgs/es_hn.msg',
   '/System/Library/Frameworks/Tcl.framework/Versions/8.5/Resources/Scripts/msgs/es_hn.msg',
   'DATA'),
  ('tk/button.tcl',
   '/System/Library/Frameworks/Tk.framework/Versions/8.5/Resources/Scripts/button.tcl',
   'DATA'),
  ('tk/ttk/scrollbar.tcl',
   '/System/Library/Frameworks/Tk.framework/Versions/8.5/Resources/Scripts/ttk/scrollbar.tcl',
   'DATA'),
  ('tcl/msgs/pt.msg',
   '/System/Library/Frameworks/Tcl.framework/Versions/8.5/Resources/Scripts/msgs/pt.msg',
   'DATA'),
  ('tk/msgs/en_gb.msg',
   '/System/Library/Frameworks/Tk.framework/Versions/8.5/Resources/Scripts/msgs/en_gb.msg',
   'DATA'),
  ('tcl/tm.tcl',
   '/System/Library/Frameworks/Tcl.framework/Versions/8.5/Resources/Scripts/tm.tcl',
   'DATA'),
  ('tcl/encoding/iso8859-1.enc',
   '/System/Library/Frameworks/Tcl.framework/Versions/8.5/Resources/Scripts/encoding/iso8859-1.enc',
   'DATA'),
  ('tcl/encoding/ascii.enc',
   '/System/Library/Frameworks/Tcl.framework/Versions/8.5/Resources/Scripts/encoding/ascii.enc',
   'DATA'),
  ('tcl/encoding/cp949.enc',
   '/System/Library/Frameworks/Tcl.framework/Versions/8.5/Resources/Scripts/encoding/cp949.enc',
   'DATA'),
  ('tcl/encoding/gb1988.enc',
   '/System/Library/Frameworks/Tcl.framework/Versions/8.5/Resources/Scripts/encoding/gb1988.enc',
   'DATA'),
  ('tcl/encoding/cp855.enc',
   '/System/Library/Frameworks/Tcl.framework/Versions/8.5/Resources/Scripts/encoding/cp855.enc',
   'DATA'),
  ('tcl/encoding/iso8859-4.enc',
   '/System/Library/Frameworks/Tcl.framework/Versions/8.5/Resources/Scripts/encoding/iso8859-4.enc',
   'DATA'),
  ('tcl/msgs/zh_sg.msg',
   '/System/Library/Frameworks/Tcl.framework/Versions/8.5/Resources/Scripts/msgs/zh_sg.msg',
   'DATA'),
  ('tcl/msgs/lv.msg',
   '/System/Library/Frameworks/Tcl.framework/Versions/8.5/Resources/Scripts/msgs/lv.msg',
   'DATA'),
  ('tk/ttk/sizegrip.tcl',
   '/System/Library/Frameworks/Tk.framework/Versions/8.5/Resources/Scripts/ttk/sizegrip.tcl',
   'DATA'),
  ('tk/scale.tcl',
   '/System/Library/Frameworks/Tk.framework/Versions/8.5/Resources/Scripts/scale.tcl',
   'DATA'),
  ('tk/ttk/menubutton.tcl',
   '/System/Library/Frameworks/Tk.framework/Versions/8.5/Resources/Scripts/ttk/menubutton.tcl',
   'DATA'),
  ('tcl/msgs/fo_fo.msg',
   '/System/Library/Frameworks/Tcl.framework/Versions/8.5/Resources/Scripts/msgs/fo_fo.msg',
   'DATA'),
  ('tcl/word.tcl',
   '/System/Library/Frameworks/Tcl.framework/Versions/8.5/Resources/Scripts/word.tcl',
   'DATA'),
  ('tcl/encoding/cp862.enc',
   '/System/Library/Frameworks/Tcl.framework/Versions/8.5/Resources/Scripts/encoding/cp862.enc',
   'DATA'),
  ('tk/clrpick.tcl',
   '/System/Library/Frameworks/Tk.framework/Versions/8.5/Resources/Scripts/clrpick.tcl',
   'DATA'),
  ('tk/ttk/notebook.tcl',
   '/System/Library/Frameworks/Tk.framework/Versions/8.5/Resources/Scripts/ttk/notebook.tcl',
   'DATA'),
  ('tcl/msgs/de.msg',
   '/System/Library/Frameworks/Tcl.framework/Versions/8.5/Resources/Scripts/msgs/de.msg',
   'DATA'),
  ('tcl/msgs/kok_in.msg',
   '/System/Library/Frameworks/Tcl.framework/Versions/8.5/Resources/Scripts/msgs/kok_in.msg',
   'DATA'),
  ('tk/tkfbox.tcl',
   '/System/Library/Frameworks/Tk.framework/Versions/8.5/Resources/Scripts/tkfbox.tcl',
   'DATA'),
  ('tcl/msgs/es.msg',
   '/System/Library/Frameworks/Tcl.framework/Versions/8.5/Resources/Scripts/msgs/es.msg',
   'DATA'),
  ('tcl/encoding/macCroatian.enc',
   '/System/Library/Frameworks/Tcl.framework/Versions/8.5/Resources/Scripts/encoding/macCroatian.enc',
   'DATA'),
  ('tk/ttk/scale.tcl',
   '/System/Library/Frameworks/Tk.framework/Versions/8.5/Resources/Scripts/ttk/scale.tcl',
   'DATA'),
  ('tcl/encoding/iso8859-9.enc',
   '/System/Library/Frameworks/Tcl.framework/Versions/8.5/Resources/Scripts/encoding/iso8859-9.enc',
   'DATA'),
  ('tcl/clock.tcl',
   '/System/Library/Frameworks/Tcl.framework/Versions/8.5/Resources/Scripts/clock.tcl',
   'DATA'),
  ('tcl/msgs/ta_in.msg',
   '/System/Library/Frameworks/Tcl.framework/Versions/8.5/Resources/Scripts/msgs/ta_in.msg',
   'DATA'),
  ('tcl/msgs/ru.msg',
   '/System/Library/Frameworks/Tcl.framework/Versions/8.5/Resources/Scripts/msgs/ru.msg',
   'DATA'),
  ('tcl/msgs/en_au.msg',
   '/System/Library/Frameworks/Tcl.framework/Versions/8.5/Resources/Scripts/msgs/en_au.msg',
   'DATA'),
  ('tk/ttk/aquaTheme.tcl',
   '/System/Library/Frameworks/Tk.framework/Versions/8.5/Resources/Scripts/ttk/aquaTheme.tcl',
   'DATA'),
  ('tk/images/logoMed.gif',
   '/System/Library/Frameworks/Tk.framework/Versions/8.5/Resources/Scripts/images/logoMed.gif',
   'DATA'),
  ('tcl/encoding/cp1253.enc',
   '/System/Library/Frameworks/Tcl.framework/Versions/8.5/Resources/Scripts/encoding/cp1253.enc',
   'DATA'),
  ('tcl/msgs/es_cl.msg',
   '/System/Library/Frameworks/Tcl.framework/Versions/8.5/Resources/Scripts/msgs/es_cl.msg',
   'DATA'),
  ('tcl/msgs/ca.msg',
   '/System/Library/Frameworks/Tcl.framework/Versions/8.5/Resources/Scripts/msgs/ca.msg',
   'DATA'),
  ('tk/ttk/panedwindow.tcl',
   '/System/Library/Frameworks/Tk.framework/Versions/8.5/Resources/Scripts/ttk/panedwindow.tcl',
   'DATA'),
  ('tk/spinbox.tcl',
   '/System/Library/Frameworks/Tk.framework/Versions/8.5/Resources/Scripts/spinbox.tcl',
   'DATA'),
  ('tcl/msgs/en_sg.msg',
   '/System/Library/Frameworks/Tcl.framework/Versions/8.5/Resources/Scripts/msgs/en_sg.msg',
   'DATA'),
  ('tcl/msgs/es_do.msg',
   '/System/Library/Frameworks/Tcl.framework/Versions/8.5/Resources/Scripts/msgs/es_do.msg',
   'DATA'),
  ('tcl/encoding/gb2312-raw.enc',
   '/System/Library/Frameworks/Tcl.framework/Versions/8.5/Resources/Scripts/encoding/gb2312-raw.enc',
   'DATA'),
  ('tcl/encoding/cp775.enc',
   '/System/Library/Frameworks/Tcl.framework/Versions/8.5/Resources/Scripts/encoding/cp775.enc',
   'DATA'),
  ('tcl/encoding/cp950.enc',
   '/System/Library/Frameworks/Tcl.framework/Versions/8.5/Resources/Scripts/encoding/cp950.enc',
   'DATA'),
  ('tcl/encoding/iso8859-2.enc',
   '/System/Library/Frameworks/Tcl.framework/Versions/8.5/Resources/Scripts/encoding/iso8859-2.enc',
   'DATA'),
  ('tcl/http1.0/http.tcl',
   '/System/Library/Frameworks/Tcl.framework/Versions/8.5/Resources/Scripts/http1.0/http.tcl',
   'DATA'),
  ('tcl/encoding/ksc5601.enc',
   '/System/Library/Frameworks/Tcl.framework/Versions/8.5/Resources/Scripts/encoding/ksc5601.enc',
   'DATA'),
  ('tcl/msgs/th.msg',
   '/System/Library/Frameworks/Tcl.framework/Versions/8.5/Resources/Scripts/msgs/th.msg',
   'DATA'),
  ('tcl/encoding/euc-cn.enc',
   '/System/Library/Frameworks/Tcl.framework/Versions/8.5/Resources/Scripts/encoding/euc-cn.enc',
   'DATA'),
  ('tcl/encoding/tis-620.enc',
   '/System/Library/Frameworks/Tcl.framework/Versions/8.5/Resources/Scripts/encoding/tis-620.enc',
   'DATA'),
  ('tk/ttk/progress.tcl',
   '/System/Library/Frameworks/Tk.framework/Versions/8.5/Resources/Scripts/ttk/progress.tcl',
   'DATA'),
  ('tcl/msgs/es_ar.msg',
   '/System/Library/Frameworks/Tcl.framework/Versions/8.5/Resources/Scripts/msgs/es_ar.msg',
   'DATA'),
  ('tcl/http1.0/pkgIndex.tcl',
   '/System/Library/Frameworks/Tcl.framework/Versions/8.5/Resources/Scripts/http1.0/pkgIndex.tcl',
   'DATA'),
  ('tcl/encoding/euc-kr.enc',
   '/System/Library/Frameworks/Tcl.framework/Versions/8.5/Resources/Scripts/encoding/euc-kr.enc',
   'DATA'),
  ('tcl/encoding/jis0212.enc',
   '/System/Library/Frameworks/Tcl.framework/Versions/8.5/Resources/Scripts/encoding/jis0212.enc',
   'DATA'),
  ('tcl/encoding/dingbats.enc',
   '/System/Library/Frameworks/Tcl.framework/Versions/8.5/Resources/Scripts/encoding/dingbats.enc',
   'DATA'),
  ('tcl/encoding/macCentEuro.enc',
   '/System/Library/Frameworks/Tcl.framework/Versions/8.5/Resources/Scripts/encoding/macCentEuro.enc',
   'DATA'),
  ('tcl/encoding/euc-jp.enc',
   '/System/Library/Frameworks/Tcl.framework/Versions/8.5/Resources/Scripts/encoding/euc-jp.enc',
   'DATA'),
  ('tcl/msgs/ar_in.msg',
   '/System/Library/Frameworks/Tcl.framework/Versions/8.5/Resources/Scripts/msgs/ar_in.msg',
   'DATA'),
  ('tcl/msgs/hu.msg',
   '/System/Library/Frameworks/Tcl.framework/Versions/8.5/Resources/Scripts/msgs/hu.msg',
   'DATA'),
  ('tk/ttk/fonts.tcl',
   '/System/Library/Frameworks/Tk.framework/Versions/8.5/Resources/Scripts/ttk/fonts.tcl',
   'DATA'),
  ('tk/mkpsenc.tcl',
   '/System/Library/Frameworks/Tk.framework/Versions/8.5/Resources/Scripts/mkpsenc.tcl',
   'DATA'),
  ('tk/menu.tcl',
   '/System/Library/Frameworks/Tk.framework/Versions/8.5/Resources/Scripts/menu.tcl',
   'DATA'),
  ('tk/ttk/utils.tcl',
   '/System/Library/Frameworks/Tk.framework/Versions/8.5/Resources/Scripts/ttk/utils.tcl',
   'DATA'),
  ('tk/tk.tcl',
   '/System/Library/Frameworks/Tk.framework/Versions/8.5/Resources/Scripts/tk.tcl',
   'DATA'),
  ('tcl/msgs/fr_ca.msg',
   '/System/Library/Frameworks/Tcl.framework/Versions/8.5/Resources/Scripts/msgs/fr_ca.msg',
   'DATA'),
  ('tk/msgs/pl.msg',
   '/System/Library/Frameworks/Tk.framework/Versions/8.5/Resources/Scripts/msgs/pl.msg',
   'DATA'),
  ('tcl/msgs/es_cr.msg',
   '/System/Library/Frameworks/Tcl.framework/Versions/8.5/Resources/Scripts/msgs/es_cr.msg',
   'DATA'),
  ('tk/msgbox.tcl',
   '/System/Library/Frameworks/Tk.framework/Versions/8.5/Resources/Scripts/msgbox.tcl',
   'DATA'),
  ('tcl/encoding/cp932.enc',
   '/System/Library/Frameworks/Tcl.framework/Versions/8.5/Resources/Scripts/encoding/cp932.enc',
   'DATA'),
  ('tcl/msgs/lt.msg',
   '/System/Library/Frameworks/Tcl.framework/Versions/8.5/Resources/Scripts/msgs/lt.msg',
   'DATA'),
  ('tcl/msgs/en_nz.msg',
   '/System/Library/Frameworks/Tcl.framework/Versions/8.5/Resources/Scripts/msgs/en_nz.msg',
   'DATA'),
  ('tcl/msgs/es_mx.msg',
   '/System/Library/Frameworks/Tcl.framework/Versions/8.5/Resources/Scripts/msgs/es_mx.msg',
   'DATA'),
  ('tk/console.tcl',
   '/System/Library/Frameworks/Tk.framework/Versions/8.5/Resources/Scripts/console.tcl',
   'DATA'),
  ('tk/msgs/cs.msg',
   '/System/Library/Frameworks/Tk.framework/Versions/8.5/Resources/Scripts/msgs/cs.msg',
   'DATA'),
  ('tk/focus.tcl',
   '/System/Library/Frameworks/Tk.framework/Versions/8.5/Resources/Scripts/focus.tcl',
   'DATA'),
  ('tcl/msgs/en_in.msg',
   '/System/Library/Frameworks/Tcl.framework/Versions/8.5/Resources/Scripts/msgs/en_in.msg',
   'DATA'),
  ('tcl/encoding/macUkraine.enc',
   '/System/Library/Frameworks/Tcl.framework/Versions/8.5/Resources/Scripts/encoding/macUkraine.enc',
   'DATA'),
  ('tcl/msgs/de_be.msg',
   '/System/Library/Frameworks/Tcl.framework/Versions/8.5/Resources/Scripts/msgs/de_be.msg',
   'DATA'),
  ('tcl/msgs/hr.msg',
   '/System/Library/Frameworks/Tcl.framework/Versions/8.5/Resources/Scripts/msgs/hr.msg',
   'DATA'),
  ('tcl/msgs/kok.msg',
   '/System/Library/Frameworks/Tcl.framework/Versions/8.5/Resources/Scripts/msgs/kok.msg',
   'DATA'),
  ('tcl/msgs/ms.msg',
   '/System/Library/Frameworks/Tcl.framework/Versions/8.5/Resources/Scripts/msgs/ms.msg',
   'DATA'),
  ('tcl/encoding/cp857.enc',
   '/System/Library/Frameworks/Tcl.framework/Versions/8.5/Resources/Scripts/encoding/cp857.enc',
   'DATA'),
  ('tk/images/pwrdLogo175.gif',
   '/System/Library/Frameworks/Tk.framework/Versions/8.5/Resources/Scripts/images/pwrdLogo175.gif',
   'DATA'),
  ('tk/bgerror.tcl',
   '/System/Library/Frameworks/Tk.framework/Versions/8.5/Resources/Scripts/bgerror.tcl',
   'DATA'),
  ('tcl/encoding/cp863.enc',
   '/System/Library/Frameworks/Tcl.framework/Versions/8.5/Resources/Scripts/encoding/cp863.enc',
   'DATA'),
  ('tcl/tclAppInit.c',
   '/System/Library/Frameworks/Tcl.framework/Versions/8.5/Resources/Scripts/tclAppInit.c',
   'DATA'),
  ('tk/ttk/xpTheme.tcl',
   '/System/Library/Frameworks/Tk.framework/Versions/8.5/Resources/Scripts/ttk/xpTheme.tcl',
   'DATA'),
  ('tcl/msgs/zh.msg',
   '/System/Library/Frameworks/Tcl.framework/Versions/8.5/Resources/Scripts/msgs/zh.msg',
   'DATA'),
  ('tcl/encoding/macIceland.enc',
   '/System/Library/Frameworks/Tcl.framework/Versions/8.5/Resources/Scripts/encoding/macIceland.enc',
   'DATA'),
  ('tcl/msgs/eu_es.msg',
   '/System/Library/Frameworks/Tcl.framework/Versions/8.5/Resources/Scripts/msgs/eu_es.msg',
   'DATA'),
  ('tk/msgs/en.msg',
   '/System/Library/Frameworks/Tk.framework/Versions/8.5/Resources/Scripts/msgs/en.msg',
   'DATA'),
  ('tcl/msgs/ms_my.msg',
   '/System/Library/Frameworks/Tcl.framework/Versions/8.5/Resources/Scripts/msgs/ms_my.msg',
   'DATA'),
  ('tcl/encoding/macRomania.enc',
   '/System/Library/Frameworks/Tcl.framework/Versions/8.5/Resources/Scripts/encoding/macRomania.enc',
   'DATA'),
  ('tk/msgs/es.msg',
   '/System/Library/Frameworks/Tk.framework/Versions/8.5/Resources/Scripts/msgs/es.msg',
   'DATA'),
  ('tk/unsupported.tcl',
   '/System/Library/Frameworks/Tk.framework/Versions/8.5/Resources/Scripts/unsupported.tcl',
   'DATA'),
  ('tcl/history.tcl',
   '/System/Library/Frameworks/Tcl.framework/Versions/8.5/Resources/Scripts/history.tcl',
   'DATA'),
  ('tcl/init.tcl',
   '/System/Library/Frameworks/Tcl.framework/Versions/8.5/Resources/Scripts/init.tcl',
   'DATA'),
  ('tk/msgs/de.msg',
   '/System/Library/Frameworks/Tk.framework/Versions/8.5/Resources/Scripts/msgs/de.msg',
   'DATA'),
  ('tcl/msgs/ar_jo.msg',
   '/System/Library/Frameworks/Tcl.framework/Versions/8.5/Resources/Scripts/msgs/ar_jo.msg',
   'DATA'),
  ('tcl/msgs/ro.msg',
   '/System/Library/Frameworks/Tcl.framework/Versions/8.5/Resources/Scripts/msgs/ro.msg',
   'DATA'),
  ('tk/images/logo100.gif',
   '/System/Library/Frameworks/Tk.framework/Versions/8.5/Resources/Scripts/images/logo100.gif',
   'DATA'),
  ('tcl/msgs/fi.msg',
   '/System/Library/Frameworks/Tcl.framework/Versions/8.5/Resources/Scripts/msgs/fi.msg',
   'DATA'),
  ('tk/optMenu.tcl',
   '/System/Library/Frameworks/Tk.framework/Versions/8.5/Resources/Scripts/optMenu.tcl',
   'DATA'),
  ('tcl/encoding/macJapan.enc',
   '/System/Library/Frameworks/Tcl.framework/Versions/8.5/Resources/Scripts/encoding/macJapan.enc',
   'DATA'),
  ('tk/pkgIndex.tcl',
   '/System/Library/Frameworks/Tk.framework/Versions/8.5/Resources/Scripts/pkgIndex.tcl',
   'DATA'),
  ('tcl/msgs/ru_ua.msg',
   '/System/Library/Frameworks/Tcl.framework/Versions/8.5/Resources/Scripts/msgs/ru_ua.msg',
   'DATA'),
  ('tcl/msgs/id_id.msg',
   '/System/Library/Frameworks/Tcl.framework/Versions/8.5/Resources/Scripts/msgs/id_id.msg',
   'DATA'),
  ('tcl/msgs/ta.msg',
   '/System/Library/Frameworks/Tcl.framework/Versions/8.5/Resources/Scripts/msgs/ta.msg',
   'DATA'),
  ('tcl/encoding/cp861.enc',
   '/System/Library/Frameworks/Tcl.framework/Versions/8.5/Resources/Scripts/encoding/cp861.enc',
   'DATA'),
  ('tcl/msgs/it_ch.msg',
   '/System/Library/Frameworks/Tcl.framework/Versions/8.5/Resources/Scripts/msgs/it_ch.msg',
   'DATA'),
  ('tk/images/logo.eps',
   '/System/Library/Frameworks/Tk.framework/Versions/8.5/Resources/Scripts/images/logo.eps',
   'DATA'),
  ('tk/msgs/hu.msg',
   '/System/Library/Frameworks/Tk.framework/Versions/8.5/Resources/Scripts/msgs/hu.msg',
   'DATA'),
  ('tk/msgs/nl.msg',
   '/System/Library/Frameworks/Tk.framework/Versions/8.5/Resources/Scripts/msgs/nl.msg',
   'DATA'),
  ('tcl/msgs/nn.msg',
   '/System/Library/Frameworks/Tcl.framework/Versions/8.5/Resources/Scripts/msgs/nn.msg',
   'DATA'),
  ('tcl/msgs/eu.msg',
   '/System/Library/Frameworks/Tcl.framework/Versions/8.5/Resources/Scripts/msgs/eu.msg',
   'DATA'),
  ('tcl/msgs/es_ve.msg',
   '/System/Library/Frameworks/Tcl.framework/Versions/8.5/Resources/Scripts/msgs/es_ve.msg',
   'DATA'),
  ('tk/msgs/eo.msg',
   '/System/Library/Frameworks/Tk.framework/Versions/8.5/Resources/Scripts/msgs/eo.msg',
   'DATA'),
  ('tcl/msgs/et.msg',
   '/System/Library/Frameworks/Tcl.framework/Versions/8.5/Resources/Scripts/msgs/et.msg',
   'DATA'),
  ('tcl/msgs/mr_in.msg',
   '/System/Library/Frameworks/Tcl.framework/Versions/8.5/Resources/Scripts/msgs/mr_in.msg',
   'DATA'),
  ('tcl/parray.tcl',
   '/System/Library/Frameworks/Tcl.framework/Versions/8.5/Resources/Scripts/parray.tcl',
   'DATA'),
  ('tcl/msgs/af_za.msg',
   '/System/Library/Frameworks/Tcl.framework/Versions/8.5/Resources/Scripts/msgs/af_za.msg',
   'DATA'),
  ('tcl/encoding/cp936.enc',
   '/System/Library/Frameworks/Tcl.framework/Versions/8.5/Resources/Scripts/encoding/cp936.enc',
   'DATA'),
  ('tcl/msgs/en_ie.msg',
   '/System/Library/Frameworks/Tcl.framework/Versions/8.5/Resources/Scripts/msgs/en_ie.msg',
   'DATA'),
  ('tcl/encoding/iso8859-7.enc',
   '/System/Library/Frameworks/Tcl.framework/Versions/8.5/Resources/Scripts/encoding/iso8859-7.enc',
   'DATA'),
  ('tcl/encoding/iso8859-8.enc',
   '/System/Library/Frameworks/Tcl.framework/Versions/8.5/Resources/Scripts/encoding/iso8859-8.enc',
   'DATA'),
  ('tk/ttk/defaults.tcl',
   '/System/Library/Frameworks/Tk.framework/Versions/8.5/Resources/Scripts/ttk/defaults.tcl',
   'DATA'),
  ('tcl/msgs/de_at.msg',
   '/System/Library/Frameworks/Tcl.framework/Versions/8.5/Resources/Scripts/msgs/de_at.msg',
   'DATA'),
  ('tcl/encoding/cp874.enc',
   '/System/Library/Frameworks/Tcl.framework/Versions/8.5/Resources/Scripts/encoding/cp874.enc',
   'DATA'),
  ('tcl/msgs/pt_br.msg',
   '/System/Library/Frameworks/Tcl.framework/Versions/8.5/Resources/Scripts/msgs/pt_br.msg',
   'DATA'),
  ('tcl/encoding/iso2022-jp.enc',
   '/System/Library/Frameworks/Tcl.framework/Versions/8.5/Resources/Scripts/encoding/iso2022-jp.enc',
   'DATA'),
  ('tk/msgs/el.msg',
   '/System/Library/Frameworks/Tk.framework/Versions/8.5/Resources/Scripts/msgs/el.msg',
   'DATA'),
  ('tcl/msgs/uk.msg',
   '/System/Library/Frameworks/Tcl.framework/Versions/8.5/Resources/Scripts/msgs/uk.msg',
   'DATA'),
  ('tcl/encoding/iso8859-6.enc',
   '/System/Library/Frameworks/Tcl.framework/Versions/8.5/Resources/Scripts/encoding/iso8859-6.enc',
   'DATA'),
  ('tk/text.tcl',
   '/System/Library/Frameworks/Tk.framework/Versions/8.5/Resources/Scripts/text.tcl',
   'DATA'),
  ('tk/entry.tcl',
   '/System/Library/Frameworks/Tk.framework/Versions/8.5/Resources/Scripts/entry.tcl',
   'DATA'),
  ('tcl/msgs/es_co.msg',
   '/System/Library/Frameworks/Tcl.framework/Versions/8.5/Resources/Scripts/msgs/es_co.msg',
   'DATA'),
  ('tcl/msgs/he.msg',
   '/System/Library/Frameworks/Tcl.framework/Versions/8.5/Resources/Scripts/msgs/he.msg',
   'DATA'),
  ('tcl/msgs/tr.msg',
   '/System/Library/Frameworks/Tcl.framework/Versions/8.5/Resources/Scripts/msgs/tr.msg',
   'DATA'),
  ('tcl/msgs/kl.msg',
   '/System/Library/Frameworks/Tcl.framework/Versions/8.5/Resources/Scripts/msgs/kl.msg',
   'DATA'),
  ('tk/images/pwrdLogo.eps',
   '/System/Library/Frameworks/Tk.framework/Versions/8.5/Resources/Scripts/images/pwrdLogo.eps',
   'DATA'),
  ('tk/ttk/cursors.tcl',
   '/System/Library/Frameworks/Tk.framework/Versions/8.5/Resources/Scripts/ttk/cursors.tcl',
   'DATA'),
  ('tcl/msgs/fr_be.msg',
   '/System/Library/Frameworks/Tcl.framework/Versions/8.5/Resources/Scripts/msgs/fr_be.msg',
   'DATA'),
  ('tcl/msgs/el.msg',
   '/System/Library/Frameworks/Tcl.framework/Versions/8.5/Resources/Scripts/msgs/el.msg',
   'DATA'),
  ('tcl/encoding/cp1258.enc',
   '/System/Library/Frameworks/Tcl.framework/Versions/8.5/Resources/Scripts/encoding/cp1258.enc',
   'DATA'),
  ('tk/comdlg.tcl',
   '/System/Library/Frameworks/Tk.framework/Versions/8.5/Resources/Scripts/comdlg.tcl',
   'DATA'),
  ('tcl/opt0.4/optparse.tcl',
   '/System/Library/Frameworks/Tcl.framework/Versions/8.5/Resources/Scripts/opt0.4/optparse.tcl',
   'DATA'),
  ('tcl/msgs/zh_tw.msg',
   '/System/Library/Frameworks/Tcl.framework/Versions/8.5/Resources/Scripts/msgs/zh_tw.msg',
   'DATA'),
  ('tcl/msgs/hi_in.msg',
   '/System/Library/Frameworks/Tcl.framework/Versions/8.5/Resources/Scripts/msgs/hi_in.msg',
   'DATA'),
  ('tk/panedwindow.tcl',
   '/System/Library/Frameworks/Tk.framework/Versions/8.5/Resources/Scripts/panedwindow.tcl',
   'DATA'),
  ('tcl/encoding/iso8859-13.enc',
   '/System/Library/Frameworks/Tcl.framework/Versions/8.5/Resources/Scripts/encoding/iso8859-13.enc',
   'DATA'),
  ('tcl/msgs/mr.msg',
   '/System/Library/Frameworks/Tcl.framework/Versions/8.5/Resources/Scripts/msgs/mr.msg',
   'DATA'),
  ('tcl/encoding/cp1252.enc',
   '/System/Library/Frameworks/Tcl.framework/Versions/8.5/Resources/Scripts/encoding/cp1252.enc',
   'DATA'),
  ('tk/images/tai-ku.gif',
   '/System/Library/Frameworks/Tk.framework/Versions/8.5/Resources/Scripts/images/tai-ku.gif',
   'DATA'),
  ('tk/msgs/pt.msg',
   '/System/Library/Frameworks/Tk.framework/Versions/8.5/Resources/Scripts/msgs/pt.msg',
   'DATA'),
  ('tcl/encoding/cp865.enc',
   '/System/Library/Frameworks/Tcl.framework/Versions/8.5/Resources/Scripts/encoding/cp865.enc',
   'DATA'),
  ('tcl/msgs/ko_kr.msg',
   '/System/Library/Frameworks/Tcl.framework/Versions/8.5/Resources/Scripts/msgs/ko_kr.msg',
   'DATA'),
  ('tcl/encoding/symbol.enc',
   '/System/Library/Frameworks/Tcl.framework/Versions/8.5/Resources/Scripts/encoding/symbol.enc',
   'DATA'),
  ('tcl/msgs/ko.msg',
   '/System/Library/Frameworks/Tcl.framework/Versions/8.5/Resources/Scripts/msgs/ko.msg',
   'DATA'),
  ('tcl/msgs/sl.msg',
   '/System/Library/Frameworks/Tcl.framework/Versions/8.5/Resources/Scripts/msgs/sl.msg',
   'DATA'),
  ('tcl/msgs/kw_gb.msg',
   '/System/Library/Frameworks/Tcl.framework/Versions/8.5/Resources/Scripts/msgs/kw_gb.msg',
   'DATA'),
  ('tcl/msgs/sh.msg',
   '/System/Library/Frameworks/Tcl.framework/Versions/8.5/Resources/Scripts/msgs/sh.msg',
   'DATA'),
  ('tcl/msgs/en_ca.msg',
   '/System/Library/Frameworks/Tcl.framework/Versions/8.5/Resources/Scripts/msgs/en_ca.msg',
   'DATA'),
  ('tcl/encoding/jis0208.enc',
   '/System/Library/Frameworks/Tcl.framework/Versions/8.5/Resources/Scripts/encoding/jis0208.enc',
   'DATA'),
  ('tcl/msgs/es_sv.msg',
   '/System/Library/Frameworks/Tcl.framework/Versions/8.5/Resources/Scripts/msgs/es_sv.msg',
   'DATA'),
  ('tcl/opt0.4/pkgIndex.tcl',
   '/System/Library/Frameworks/Tcl.framework/Versions/8.5/Resources/Scripts/opt0.4/pkgIndex.tcl',
   'DATA'),
  ('tcl/msgs/es_ni.msg',
   '/System/Library/Frameworks/Tcl.framework/Versions/8.5/Resources/Scripts/msgs/es_ni.msg',
   'DATA'),
  ('tcl/encoding/cp850.enc',
   '/System/Library/Frameworks/Tcl.framework/Versions/8.5/Resources/Scripts/encoding/cp850.enc',
   'DATA'),
  ('tcl/msgs/cs.msg',
   '/System/Library/Frameworks/Tcl.framework/Versions/8.5/Resources/Scripts/msgs/cs.msg',
   'DATA'),
  ('tcl/msgs/bn_in.msg',
   '/System/Library/Frameworks/Tcl.framework/Versions/8.5/Resources/Scripts/msgs/bn_in.msg',
   'DATA'),
  ('tk/ttk/combobox.tcl',
   '/System/Library/Frameworks/Tk.framework/Versions/8.5/Resources/Scripts/ttk/combobox.tcl',
   'DATA'),
  ('tcl/msgs/gv.msg',
   '/System/Library/Frameworks/Tcl.framework/Versions/8.5/Resources/Scripts/msgs/gv.msg',
   'DATA'),
  ('tcl/msgs/bn.msg',
   '/System/Library/Frameworks/Tcl.framework/Versions/8.5/Resources/Scripts/msgs/bn.msg',
   'DATA'),
  ('tcl/msgs/vi.msg',
   '/System/Library/Frameworks/Tcl.framework/Versions/8.5/Resources/Scripts/msgs/vi.msg',
   'DATA'),
  ('tcl/msgs/is.msg',
   '/System/Library/Frameworks/Tcl.framework/Versions/8.5/Resources/Scripts/msgs/is.msg',
   'DATA'),
  ('tcl/encoding/gb12345.enc',
   '/System/Library/Frameworks/Tcl.framework/Versions/8.5/Resources/Scripts/encoding/gb12345.enc',
   'DATA'),
  ('tcl/msgs/fr.msg',
   '/System/Library/Frameworks/Tcl.framework/Versions/8.5/Resources/Scripts/msgs/fr.msg',
   'DATA'),
  ('tk/ttk/ttk.tcl',
   '/System/Library/Frameworks/Tk.framework/Versions/8.5/Resources/Scripts/ttk/ttk.tcl',
   'DATA'),
  ('tcl/msgs/en_za.msg',
   '/System/Library/Frameworks/Tcl.framework/Versions/8.5/Resources/Scripts/msgs/en_za.msg',
   'DATA'),
  ('tk/ttk/altTheme.tcl',
   '/System/Library/Frameworks/Tk.framework/Versions/8.5/Resources/Scripts/ttk/altTheme.tcl',
   'DATA'),
  ('tk/ttk/spinbox.tcl',
   '/System/Library/Frameworks/Tk.framework/Versions/8.5/Resources/Scripts/ttk/spinbox.tcl',
   'DATA'),
  ('tcl/encoding/macCyrillic.enc',
   '/System/Library/Frameworks/Tcl.framework/Versions/8.5/Resources/Scripts/encoding/macCyrillic.enc',
   'DATA'),
  ('tcl/encoding/cp864.enc',
   '/System/Library/Frameworks/Tcl.framework/Versions/8.5/Resources/Scripts/encoding/cp864.enc',
   'DATA'),
  ('tcl/encoding/cp1250.enc',
   '/System/Library/Frameworks/Tcl.framework/Versions/8.5/Resources/Scripts/encoding/cp1250.enc',
   'DATA'),
  ('tcl/encoding/cp1256.enc',
   '/System/Library/Frameworks/Tcl.framework/Versions/8.5/Resources/Scripts/encoding/cp1256.enc',
   'DATA'),
  ('tcl/msgs/ja.msg',
   '/System/Library/Frameworks/Tcl.framework/Versions/8.5/Resources/Scripts/msgs/ja.msg',
   'DATA'),
  ('tcl/encoding/cp866.enc',
   '/System/Library/Frameworks/Tcl.framework/Versions/8.5/Resources/Scripts/encoding/cp866.enc',
   'DATA'),
  ('tcl/msgs/sr.msg',
   '/System/Library/Frameworks/Tcl.framework/Versions/8.5/Resources/Scripts/msgs/sr.msg',
   'DATA'),
  ('tcl/encoding/big5.enc',
   '/System/Library/Frameworks/Tcl.framework/Versions/8.5/Resources/Scripts/encoding/big5.enc',
   'DATA'),
  ('tcl/msgs/sk.msg',
   '/System/Library/Frameworks/Tcl.framework/Versions/8.5/Resources/Scripts/msgs/sk.msg',
   'DATA'),
  ('tk/ttk/winTheme.tcl',
   '/System/Library/Frameworks/Tk.framework/Versions/8.5/Resources/Scripts/ttk/winTheme.tcl',
   'DATA'),
  ('tk/dialog.tcl',
   '/System/Library/Frameworks/Tk.framework/Versions/8.5/Resources/Scripts/dialog.tcl',
   'DATA'),
  ('tk/images/logoLarge.gif',
   '/System/Library/Frameworks/Tk.framework/Versions/8.5/Resources/Scripts/images/logoLarge.gif',
   'DATA'),
  ('tcl/msgs/es_ec.msg',
   '/System/Library/Frameworks/Tcl.framework/Versions/8.5/Resources/Scripts/msgs/es_ec.msg',
   'DATA'),
  ('tk/images/pwrdLogo200.gif',
   '/System/Library/Frameworks/Tk.framework/Versions/8.5/Resources/Scripts/images/pwrdLogo200.gif',
   'DATA'),
  ('tk/ttk/entry.tcl',
   '/System/Library/Frameworks/Tk.framework/Versions/8.5/Resources/Scripts/ttk/entry.tcl',
   'DATA'),
  ('tcl/msgs/kl_gl.msg',
   '/System/Library/Frameworks/Tcl.framework/Versions/8.5/Resources/Scripts/msgs/kl_gl.msg',
   'DATA'),
  ('tcl/encoding/gb2312.enc',
   '/System/Library/Frameworks/Tcl.framework/Versions/8.5/Resources/Scripts/encoding/gb2312.enc',
   'DATA'),
  ('tcl/msgs/eo.msg',
   '/System/Library/Frameworks/Tcl.framework/Versions/8.5/Resources/Scripts/msgs/eo.msg',
   'DATA'),
  ('tcl/encoding/koi8-r.enc',
   '/System/Library/Frameworks/Tcl.framework/Versions/8.5/Resources/Scripts/encoding/koi8-r.enc',
   'DATA'),
  ('tk/images/pwrdLogo100.gif',
   '/System/Library/Frameworks/Tk.framework/Versions/8.5/Resources/Scripts/images/pwrdLogo100.gif',
   'DATA'),
  ('tk/ttk/vistaTheme.tcl',
   '/System/Library/Frameworks/Tk.framework/Versions/8.5/Resources/Scripts/ttk/vistaTheme.tcl',
   'DATA'),
  ('tcl/encoding/jis0201.enc',
   '/System/Library/Frameworks/Tcl.framework/Versions/8.5/Resources/Scripts/encoding/jis0201.enc',
   'DATA'),
  ('tk/tkAppInit.c',
   '/System/Library/Frameworks/Tk.framework/Versions/8.5/Resources/Scripts/tkAppInit.c',
   'DATA'),
  ('tk/images/pwrdLogo150.gif',
   '/System/Library/Frameworks/Tk.framework/Versions/8.5/Resources/Scripts/images/pwrdLogo150.gif',
   'DATA'),
  ('lib/python2.7/config/Makefile',
   '/usr/local/Cellar/python@2/2.7.15_1/Frameworks/Python.framework/Versions/2.7/lib/python2.7/config/Makefile',
   'DATA'),
  ('tk/tclIndex',
   '/System/Library/Frameworks/Tk.framework/Versions/8.5/Resources/Scripts/tclIndex',
   'DATA'),
  ('tcl/msgs/fa.msg',
   '/System/Library/Frameworks/Tcl.framework/Versions/8.5/Resources/Scripts/msgs/fa.msg',
   'DATA'),
  ('tk/choosedir.tcl',
   '/System/Library/Frameworks/Tk.framework/Versions/8.5/Resources/Scripts/choosedir.tcl',
   'DATA'),
  ('include/python2.7/pyconfig.h',
   '/usr/local/Cellar/python@2/2.7.15_1/Frameworks/Python.framework/Versions/2.7/include/python2.7/pyconfig.h',
   'DATA'),
  ('tk/obsolete.tcl',
   '/System/Library/Frameworks/Tk.framework/Versions/8.5/Resources/Scripts/obsolete.tcl',
   'DATA'),
  ('tcl/encoding/koi8-u.enc',
   '/System/Library/Frameworks/Tcl.framework/Versions/8.5/Resources/Scripts/encoding/koi8-u.enc',
   'DATA'),
  ('tk/ttk/classicTheme.tcl',
   '/System/Library/Frameworks/Tk.framework/Versions/8.5/Resources/Scripts/ttk/classicTheme.tcl',
   'DATA'),
  ('tcl/encoding/cp1257.enc',
   '/System/Library/Frameworks/Tcl.framework/Versions/8.5/Resources/Scripts/encoding/cp1257.enc',
   'DATA'),
  ('tcl/msgs/nb.msg',
   '/System/Library/Frameworks/Tcl.framework/Versions/8.5/Resources/Scripts/msgs/nb.msg',
   'DATA'),
  ('tcl/encoding/macGreek.enc',
   '/System/Library/Frameworks/Tcl.framework/Versions/8.5/Resources/Scripts/encoding/macGreek.enc',
   'DATA'),
  ('tk/images/logo64.gif',
   '/System/Library/Frameworks/Tk.framework/Versions/8.5/Resources/Scripts/images/logo64.gif',
   'DATA'),
  ('tcl/msgs/zh_hk.msg',
   '/System/Library/Frameworks/Tcl.framework/Versions/8.5/Resources/Scripts/msgs/zh_hk.msg',
   'DATA'),
  ('tcl/msgs/mk.msg',
   '/System/Library/Frameworks/Tcl.framework/Versions/8.5/Resources/Scripts/msgs/mk.msg',
   'DATA'),
  ('tcl/msgs/sq.msg',
   '/System/Library/Frameworks/Tcl.framework/Versions/8.5/Resources/Scripts/msgs/sq.msg',
   'DATA'),
  ('tcl/encoding/cp1254.enc',
   '/System/Library/Frameworks/Tcl.framework/Versions/8.5/Resources/Scripts/encoding/cp1254.enc',
   'DATA'),
  ('tcl/msgs/da.msg',
   '/System/Library/Frameworks/Tcl.framework/Versions/8.5/Resources/Scripts/msgs/da.msg',
   'DATA'),
  ('tcl/encoding/iso8859-5.enc',
   '/System/Library/Frameworks/Tcl.framework/Versions/8.5/Resources/Scripts/encoding/iso8859-5.enc',
   'DATA'),
  ('tk/msgs/it.msg',
   '/System/Library/Frameworks/Tk.framework/Versions/8.5/Resources/Scripts/msgs/it.msg',
   'DATA'),
  ('tcl/msgs/ar_lb.msg',
   '/System/Library/Frameworks/Tcl.framework/Versions/8.5/Resources/Scripts/msgs/ar_lb.msg',
   'DATA'),
  ('tcl/msgs/fa_ir.msg',
   '/System/Library/Frameworks/Tcl.framework/Versions/8.5/Resources/Scripts/msgs/fa_ir.msg',
   'DATA'),
  ('tcl/msgs/gl.msg',
   '/System/Library/Frameworks/Tcl.framework/Versions/8.5/Resources/Scripts/msgs/gl.msg',
   'DATA'),
  ('tcl/msgs/ar_sy.msg',
   '/System/Library/Frameworks/Tcl.framework/Versions/8.5/Resources/Scripts/msgs/ar_sy.msg',
   'DATA'),
  ('tk/palette.tcl',
   '/System/Library/Frameworks/Tk.framework/Versions/8.5/Resources/Scripts/palette.tcl',
   'DATA'),
  ('tcl/tclIndex',
   '/System/Library/Frameworks/Tcl.framework/Versions/8.5/Resources/Scripts/tclIndex',
   'DATA'),
  ('tk/ttk/treeview.tcl',
   '/System/Library/Frameworks/Tk.framework/Versions/8.5/Resources/Scripts/ttk/treeview.tcl',
   'DATA'),
  ('tcl/msgs/es_gt.msg',
   '/System/Library/Frameworks/Tcl.framework/Versions/8.5/Resources/Scripts/msgs/es_gt.msg',
   'DATA'),
  ('tk/scrlbar.tcl',
   '/System/Library/Frameworks/Tk.framework/Versions/8.5/Resources/Scripts/scrlbar.tcl',
   'DATA'),
  ('tk/ttk/button.tcl',
   '/System/Library/Frameworks/Tk.framework/Versions/8.5/Resources/Scripts/ttk/button.tcl',
   'DATA'),
  ('tcl/msgs/mt.msg',
   '/System/Library/Frameworks/Tcl.framework/Versions/8.5/Resources/Scripts/msgs/mt.msg',
   'DATA'),
  ('tcl/msgs/ga_ie.msg',
   '/System/Library/Frameworks/Tcl.framework/Versions/8.5/Resources/Scripts/msgs/ga_ie.msg',
   'DATA'),
  ('tcl/encoding/cp860.enc',
   '/System/Library/Frameworks/Tcl.framework/Versions/8.5/Resources/Scripts/encoding/cp860.enc',
   'DATA'),
  ('tcl/tclDTrace.d',
   '/System/Library/Frameworks/Tcl.framework/Versions/8.5/Resources/Scripts/tclDTrace.d',
   'DATA'),
  ('tk/tearoff.tcl',
   '/System/Library/Frameworks/Tk.framework/Versions/8.5/Resources/Scripts/tearoff.tcl',
   'DATA'),
  ('tk/msgs/da.msg',
   '/System/Library/Frameworks/Tk.framework/Versions/8.5/Resources/Scripts/msgs/da.msg',
   'DATA'),
  ('tcl/encoding/macThai.enc',
   '/System/Library/Frameworks/Tcl.framework/Versions/8.5/Resources/Scripts/encoding/macThai.enc',
   'DATA'),
  ('tcl/msgs/te_in.msg',
   '/System/Library/Frameworks/Tcl.framework/Versions/8.5/Resources/Scripts/msgs/te_in.msg',
   'DATA'),
  ('tcl/encoding/cp869.enc',
   '/System/Library/Frameworks/Tcl.framework/Versions/8.5/Resources/Scripts/encoding/cp869.enc',
   'DATA'),
  ('tcl/msgs/en_gb.msg',
   '/System/Library/Frameworks/Tcl.framework/Versions/8.5/Resources/Scripts/msgs/en_gb.msg',
   'DATA'),
  ('tcl/msgs/id.msg',
   '/System/Library/Frameworks/Tcl.framework/Versions/8.5/Resources/Scripts/msgs/id.msg',
   'DATA'),
  ('tk/listbox.tcl',
   '/System/Library/Frameworks/Tk.framework/Versions/8.5/Resources/Scripts/listbox.tcl',
   'DATA'),
  ('tcl/encoding/ebcdic.enc',
   '/System/Library/Frameworks/Tcl.framework/Versions/8.5/Resources/Scripts/encoding/ebcdic.enc',
   'DATA'),
  ('tk/xmfbox.tcl',
   '/System/Library/Frameworks/Tk.framework/Versions/8.5/Resources/Scripts/xmfbox.tcl',
   'DATA'),
  ('tk/images/README',
   '/System/Library/Frameworks/Tk.framework/Versions/8.5/Resources/Scripts/images/README',
   'DATA'),
  ('tcl/encoding/cp1255.enc',
   '/System/Library/Frameworks/Tcl.framework/Versions/8.5/Resources/Scripts/encoding/cp1255.enc',
   'DATA'),
  ('tcl/msgs/nl_be.msg',
   '/System/Library/Frameworks/Tcl.framework/Versions/8.5/Resources/Scripts/msgs/nl_be.msg',
   'DATA'),
  ('tcl/msgs/en_be.msg',
   '/System/Library/Frameworks/Tcl.framework/Versions/8.5/Resources/Scripts/msgs/en_be.msg',
   'DATA'),
  ('tcl/encoding/iso2022-kr.enc',
   '/System/Library/Frameworks/Tcl.framework/Versions/8.5/Resources/Scripts/encoding/iso2022-kr.enc',
   'DATA'),
  ('tcl/msgs/be.msg',
   '/System/Library/Frameworks/Tcl.framework/Versions/8.5/Resources/Scripts/msgs/be.msg',
   'DATA'),
  ('tcl/msgs/it.msg',
   '/System/Library/Frameworks/Tcl.framework/Versions/8.5/Resources/Scripts/msgs/it.msg',
   'DATA'),
  ('tcl/encoding/iso8859-15.enc',
   '/System/Library/Frameworks/Tcl.framework/Versions/8.5/Resources/Scripts/encoding/iso8859-15.enc',
   'DATA'),
  ('tcl/msgs/af.msg',
   '/System/Library/Frameworks/Tcl.framework/Versions/8.5/Resources/Scripts/msgs/af.msg',
   'DATA'),
  ('tcl/encoding/macTurkish.enc',
   '/System/Library/Frameworks/Tcl.framework/Versions/8.5/Resources/Scripts/encoding/macTurkish.enc',
   'DATA'),
  ('tcl/encoding/iso8859-10.enc',
   '/System/Library/Frameworks/Tcl.framework/Versions/8.5/Resources/Scripts/encoding/iso8859-10.enc',
   'DATA'),
  ('tcl/msgs/en_hk.msg',
   '/System/Library/Frameworks/Tcl.framework/Versions/8.5/Resources/Scripts/msgs/en_hk.msg',
   'DATA'),
  ('tk/msgs/sv.msg',
   '/System/Library/Frameworks/Tk.framework/Versions/8.5/Resources/Scripts/msgs/sv.msg',
   'DATA'),
  ('tk/ttk/clamTheme.tcl',
   '/System/Library/Frameworks/Tk.framework/Versions/8.5/Resources/Scripts/ttk/clamTheme.tcl',
   'DATA'),
  ('tcl/encoding/iso8859-16.enc',
   '/System/Library/Frameworks/Tcl.framework/Versions/8.5/Resources/Scripts/encoding/iso8859-16.enc',
   'DATA'),
  ('tcl/msgs/sw.msg',
   '/System/Library/Frameworks/Tcl.framework/Versions/8.5/Resources/Scripts/msgs/sw.msg',
   'DATA'),
  ('tcl/encoding/iso8859-3.enc',
   '/System/Library/Frameworks/Tcl.framework/Versions/8.5/Resources/Scripts/encoding/iso8859-3.enc',
   'DATA'),
  ('tcl/msgs/zh_cn.msg',
   '/System/Library/Frameworks/Tcl.framework/Versions/8.5/Resources/Scripts/msgs/zh_cn.msg',
   'DATA')],)
